ISO-10303-21;
HEADER;
/* Generated by software containing ST-Developer
 * from STEP Tools, Inc. (www.steptools.com) 
 */

FILE_DESCRIPTION(
/* description */ (''),
/* implementation_level */ '2;1');

FILE_NAME(
/* name */ 
'C:\\Users\\AndrzejPapierok\\Desktop\\Rules\\Chamfers\\Tests\\CHAMFER_
01_angle 13\X\B0_small_v01_with_hole.stp',
/* time_stamp */ '2022-05-11T09:08:08+02:00',
/* author */ ('AndrzejPapierok'),
/* organization */ ('igus GmbH'),
/* preprocessor_version */ 'ST-DEVELOPER v19',
/* originating_system */ 'Autodesk Inventor 2023',
/* authorisation */ '');

FILE_SCHEMA (('AUTOMOTIVE_DESIGN { 1 0 10303 214 3 1 1 }'));
ENDSEC;

DATA;
#10=MECHANICAL_DESIGN_GEOMETRIC_PRESENTATION_REPRESENTATION('',(#13),#283);
#11=SHAPE_REPRESENTATION_RELATIONSHIP('SRR','None',#290,#12);
#12=ADVANCED_BREP_SHAPE_REPRESENTATION('',(#14),#282);
#13=STYLED_ITEM('',(#299),#14);
#14=MANIFOLD_SOLID_BREP('Solid1',#165);
#15=FACE_BOUND('',#42,.T.);
#16=FACE_BOUND('',#44,.T.);
#17=PLANE('',#187);
#18=PLANE('',#188);
#19=PLANE('',#189);
#20=PLANE('',#190);
#21=PLANE('',#191);
#22=PLANE('',#192);
#23=PLANE('',#193);
#24=CYLINDRICAL_SURFACE('',#185,3.5);
#25=FACE_OUTER_BOUND('',#34,.T.);
#26=FACE_OUTER_BOUND('',#35,.T.);
#27=FACE_OUTER_BOUND('',#36,.T.);
#28=FACE_OUTER_BOUND('',#37,.T.);
#29=FACE_OUTER_BOUND('',#38,.T.);
#30=FACE_OUTER_BOUND('',#39,.T.);
#31=FACE_OUTER_BOUND('',#40,.T.);
#32=FACE_OUTER_BOUND('',#41,.T.);
#33=FACE_OUTER_BOUND('',#43,.T.);
#34=EDGE_LOOP('',(#115,#116,#117,#118));
#35=EDGE_LOOP('',(#119,#120,#121,#122));
#36=EDGE_LOOP('',(#123,#124,#125,#126));
#37=EDGE_LOOP('',(#127,#128,#129,#130,#131));
#38=EDGE_LOOP('',(#132,#133,#134,#135));
#39=EDGE_LOOP('',(#136,#137,#138,#139,#140));
#40=EDGE_LOOP('',(#141,#142,#143,#144));
#41=EDGE_LOOP('',(#145,#146,#147,#148));
#42=EDGE_LOOP('',(#149));
#43=EDGE_LOOP('',(#150,#151,#152,#153));
#44=EDGE_LOOP('',(#154));
#45=LINE('',#242,#62);
#46=LINE('',#246,#63);
#47=LINE('',#251,#64);
#48=LINE('',#253,#65);
#49=LINE('',#255,#66);
#50=LINE('',#256,#67);
#51=LINE('',#259,#68);
#52=LINE('',#261,#69);
#53=LINE('',#263,#70);
#54=LINE('',#264,#71);
#55=LINE('',#267,#72);
#56=LINE('',#268,#73);
#57=LINE('',#271,#74);
#58=LINE('',#273,#75);
#59=LINE('',#274,#76);
#60=LINE('',#276,#77);
#61=LINE('',#277,#78);
#62=VECTOR('',#200,5.25);
#63=VECTOR('',#205,3.5);
#64=VECTOR('',#210,10.);
#65=VECTOR('',#211,10.);
#66=VECTOR('',#212,10.);
#67=VECTOR('',#213,10.);
#68=VECTOR('',#216,10.);
#69=VECTOR('',#217,10.);
#70=VECTOR('',#218,10.);
#71=VECTOR('',#219,10.);
#72=VECTOR('',#222,10.);
#73=VECTOR('',#223,10.);
#74=VECTOR('',#226,10.);
#75=VECTOR('',#227,10.);
#76=VECTOR('',#228,10.);
#77=VECTOR('',#231,10.);
#78=VECTOR('',#232,10.);
#79=CIRCLE('',#183,7.);
#80=CIRCLE('',#184,3.5);
#81=CIRCLE('',#186,3.50000000000002);
#82=VERTEX_POINT('',#239);
#83=VERTEX_POINT('',#241);
#84=VERTEX_POINT('',#245);
#85=VERTEX_POINT('',#249);
#86=VERTEX_POINT('',#250);
#87=VERTEX_POINT('',#252);
#88=VERTEX_POINT('',#254);
#89=VERTEX_POINT('',#258);
#90=VERTEX_POINT('',#260);
#91=VERTEX_POINT('',#262);
#92=VERTEX_POINT('',#266);
#93=VERTEX_POINT('',#270);
#94=VERTEX_POINT('',#272);
#95=EDGE_CURVE('',#82,#82,#79,.T.);
#96=EDGE_CURVE('',#82,#83,#45,.T.);
#97=EDGE_CURVE('',#83,#83,#80,.T.);
#98=EDGE_CURVE('',#83,#84,#46,.T.);
#99=EDGE_CURVE('',#84,#84,#81,.T.);
#100=EDGE_CURVE('',#85,#86,#47,.T.);
#101=EDGE_CURVE('',#86,#87,#48,.T.);
#102=EDGE_CURVE('',#87,#88,#49,.T.);
#103=EDGE_CURVE('',#88,#85,#50,.T.);
#104=EDGE_CURVE('',#89,#85,#51,.T.);
#105=EDGE_CURVE('',#89,#90,#52,.T.);
#106=EDGE_CURVE('',#90,#91,#53,.T.);
#107=EDGE_CURVE('',#86,#91,#54,.T.);
#108=EDGE_CURVE('',#92,#88,#55,.T.);
#109=EDGE_CURVE('',#92,#89,#56,.T.);
#110=EDGE_CURVE('',#93,#87,#57,.T.);
#111=EDGE_CURVE('',#94,#93,#58,.T.);
#112=EDGE_CURVE('',#94,#92,#59,.T.);
#113=EDGE_CURVE('',#90,#94,#60,.T.);
#114=EDGE_CURVE('',#91,#93,#61,.T.);
#115=ORIENTED_EDGE('',*,*,#95,.F.);
#116=ORIENTED_EDGE('',*,*,#96,.T.);
#117=ORIENTED_EDGE('',*,*,#97,.F.);
#118=ORIENTED_EDGE('',*,*,#96,.F.);
#119=ORIENTED_EDGE('',*,*,#97,.T.);
#120=ORIENTED_EDGE('',*,*,#98,.T.);
#121=ORIENTED_EDGE('',*,*,#99,.F.);
#122=ORIENTED_EDGE('',*,*,#98,.F.);
#123=ORIENTED_EDGE('',*,*,#100,.T.);
#124=ORIENTED_EDGE('',*,*,#101,.T.);
#125=ORIENTED_EDGE('',*,*,#102,.T.);
#126=ORIENTED_EDGE('',*,*,#103,.T.);
#127=ORIENTED_EDGE('',*,*,#100,.F.);
#128=ORIENTED_EDGE('',*,*,#104,.F.);
#129=ORIENTED_EDGE('',*,*,#105,.T.);
#130=ORIENTED_EDGE('',*,*,#106,.T.);
#131=ORIENTED_EDGE('',*,*,#107,.F.);
#132=ORIENTED_EDGE('',*,*,#103,.F.);
#133=ORIENTED_EDGE('',*,*,#108,.F.);
#134=ORIENTED_EDGE('',*,*,#109,.T.);
#135=ORIENTED_EDGE('',*,*,#104,.T.);
#136=ORIENTED_EDGE('',*,*,#102,.F.);
#137=ORIENTED_EDGE('',*,*,#110,.F.);
#138=ORIENTED_EDGE('',*,*,#111,.F.);
#139=ORIENTED_EDGE('',*,*,#112,.T.);
#140=ORIENTED_EDGE('',*,*,#108,.T.);
#141=ORIENTED_EDGE('',*,*,#113,.T.);
#142=ORIENTED_EDGE('',*,*,#111,.T.);
#143=ORIENTED_EDGE('',*,*,#114,.F.);
#144=ORIENTED_EDGE('',*,*,#106,.F.);
#145=ORIENTED_EDGE('',*,*,#101,.F.);
#146=ORIENTED_EDGE('',*,*,#107,.T.);
#147=ORIENTED_EDGE('',*,*,#114,.T.);
#148=ORIENTED_EDGE('',*,*,#110,.T.);
#149=ORIENTED_EDGE('',*,*,#95,.T.);
#150=ORIENTED_EDGE('',*,*,#105,.F.);
#151=ORIENTED_EDGE('',*,*,#109,.F.);
#152=ORIENTED_EDGE('',*,*,#112,.F.);
#153=ORIENTED_EDGE('',*,*,#113,.F.);
#154=ORIENTED_EDGE('',*,*,#99,.T.);
#155=CONICAL_SURFACE('',#182,5.25,0.785398163397448);
#156=ADVANCED_FACE('',(#25),#155,.F.);
#157=ADVANCED_FACE('',(#26),#24,.F.);
#158=ADVANCED_FACE('',(#27),#17,.T.);
#159=ADVANCED_FACE('',(#28),#18,.T.);
#160=ADVANCED_FACE('',(#29),#19,.T.);
#161=ADVANCED_FACE('',(#30),#20,.T.);
#162=ADVANCED_FACE('',(#31),#21,.T.);
#163=ADVANCED_FACE('',(#32,#15),#22,.T.);
#164=ADVANCED_FACE('',(#33,#16),#23,.F.);
#165=CLOSED_SHELL('',(#156,#157,#158,#159,#160,#161,#162,#163,#164));
#166=DERIVED_UNIT_ELEMENT(#169,1.);
#167=DERIVED_UNIT_ELEMENT(#285,-3.);
#168=DIMENSIONAL_EXPONENTS(1.,0.,0.,0.,0.,0.,0.);
#169=(
CONVERSION_BASED_UNIT('gram',#171)
MASS_UNIT()
NAMED_UNIT(#168)
);
#170=(
MASS_UNIT()
NAMED_UNIT(*)
SI_UNIT(.KILO.,.GRAM.)
);
#171=MASS_MEASURE_WITH_UNIT(MASS_MEASURE(0.001),#170);
#172=DERIVED_UNIT((#166,#167));
#173=MEASURE_REPRESENTATION_ITEM('density measure',
POSITIVE_RATIO_MEASURE(1.),#172);
#174=PROPERTY_DEFINITION_REPRESENTATION(#179,#176);
#175=PROPERTY_DEFINITION_REPRESENTATION(#180,#177);
#176=REPRESENTATION('material name',(#178),#282);
#177=REPRESENTATION('density',(#173),#282);
#178=DESCRIPTIVE_REPRESENTATION_ITEM('Generic','Generic');
#179=PROPERTY_DEFINITION('material property','material name',#292);
#180=PROPERTY_DEFINITION('material property','density of part',#292);
#181=AXIS2_PLACEMENT_3D('placement',#237,#194,#195);
#182=AXIS2_PLACEMENT_3D('',#238,#196,#197);
#183=AXIS2_PLACEMENT_3D('',#240,#198,#199);
#184=AXIS2_PLACEMENT_3D('',#243,#201,#202);
#185=AXIS2_PLACEMENT_3D('',#244,#203,#204);
#186=AXIS2_PLACEMENT_3D('',#247,#206,#207);
#187=AXIS2_PLACEMENT_3D('',#248,#208,#209);
#188=AXIS2_PLACEMENT_3D('',#257,#214,#215);
#189=AXIS2_PLACEMENT_3D('',#265,#220,#221);
#190=AXIS2_PLACEMENT_3D('',#269,#224,#225);
#191=AXIS2_PLACEMENT_3D('',#275,#229,#230);
#192=AXIS2_PLACEMENT_3D('',#278,#233,#234);
#193=AXIS2_PLACEMENT_3D('',#279,#235,#236);
#194=DIRECTION('axis',(0.,0.,1.));
#195=DIRECTION('refdir',(1.,0.,0.));
#196=DIRECTION('center_axis',(0.,-2.22044604925031E-16,1.));
#197=DIRECTION('ref_axis',(1.,0.,0.));
#198=DIRECTION('center_axis',(0.,2.22044604925031E-16,-1.));
#199=DIRECTION('ref_axis',(1.,0.,0.));
#200=DIRECTION('',(0.707106781186547,2.43604851491927E-16,-0.707106781186547));
#201=DIRECTION('center_axis',(0.,-2.22044604925031E-16,1.));
#202=DIRECTION('ref_axis',(1.,0.,0.));
#203=DIRECTION('center_axis',(0.,-2.22044604925031E-16,1.));
#204=DIRECTION('ref_axis',(1.,0.,0.));
#205=DIRECTION('',(0.,2.22044604925031E-16,-1.));
#206=DIRECTION('center_axis',(0.,-2.22044604925031E-16,1.));
#207=DIRECTION('ref_axis',(1.,0.,0.));
#208=DIRECTION('center_axis',(0.,-0.224951054343865,0.974370064785235));
#209=DIRECTION('ref_axis',(1.,0.,0.));
#210=DIRECTION('',(-1.73082892868812E-16,0.974370064785235,0.224951054343865));
#211=DIRECTION('',(-1.,0.,0.));
#212=DIRECTION('',(2.59624339303218E-16,-0.974370064785235,-0.224951054343865));
#213=DIRECTION('',(1.,0.,0.));
#214=DIRECTION('center_axis',(1.,1.77635683940025E-16,3.94430452610506E-32));
#215=DIRECTION('ref_axis',(-1.77635683940025E-16,1.,2.22044604925031E-16));
#216=DIRECTION('',(0.,-2.22044604925031E-16,1.));
#217=DIRECTION('',(-1.77635683940025E-16,1.,2.22044604925031E-16));
#218=DIRECTION('',(0.,-2.22044604925031E-16,1.));
#219=DIRECTION('',(-1.77635683940025E-16,1.,2.22044604925031E-16));
#220=DIRECTION('center_axis',(0.,-1.,-2.22044604925031E-16));
#221=DIRECTION('ref_axis',(1.,0.,0.));
#222=DIRECTION('',(0.,-2.22044604925031E-16,1.));
#223=DIRECTION('',(1.,0.,0.));
#224=DIRECTION('center_axis',(-1.,-2.66453525910038E-16,-5.91645678915759E-32));
#225=DIRECTION('ref_axis',(2.66453525910038E-16,-1.,-2.22044604925031E-16));
#226=DIRECTION('',(2.66453525910038E-16,-1.,-2.22044604925031E-16));
#227=DIRECTION('',(0.,-2.22044604925031E-16,1.));
#228=DIRECTION('',(2.66453525910038E-16,-1.,-2.22044604925031E-16));
#229=DIRECTION('center_axis',(0.,1.,2.22044604925031E-16));
#230=DIRECTION('ref_axis',(-1.,0.,0.));
#231=DIRECTION('',(-1.,0.,0.));
#232=DIRECTION('',(-1.,0.,0.));
#233=DIRECTION('center_axis',(0.,-2.22044604925031E-16,1.));
#234=DIRECTION('ref_axis',(0.,-1.,-2.22044604925031E-16));
#235=DIRECTION('center_axis',(0.,-2.22044604925031E-16,1.));
#236=DIRECTION('ref_axis',(0.,-1.,-2.22044604925031E-16));
#237=CARTESIAN_POINT('',(0.,0.,0.));
#238=CARTESIAN_POINT('Origin',(71.3066420851106,27.2844129922304,-64.7485228951256));
#239=CARTESIAN_POINT('',(64.3066420851106,27.2844129922304,-62.9985228951256));
#240=CARTESIAN_POINT('Origin',(71.3066420851106,27.2844129922304,-62.9985228951256));
#241=CARTESIAN_POINT('',(67.8066420851106,27.2844129922304,-66.4985228951256));
#242=CARTESIAN_POINT('',(66.0566420851106,27.2844129922304,-64.7485228951256));
#243=CARTESIAN_POINT('Origin',(71.3066420851106,27.2844129922304,-66.4985228951256));
#244=CARTESIAN_POINT('Origin',(71.3066420851106,27.2844129922304,-72.9985228951256));
#245=CARTESIAN_POINT('',(67.8066420851106,27.2844129922304,-82.9985228951256));
#246=CARTESIAN_POINT('',(67.8066420851106,27.2844129922304,-72.9985228951256));
#247=CARTESIAN_POINT('Origin',(71.3066420851106,27.2844129922304,-82.9985228951256));
#248=CARTESIAN_POINT('Origin',(65.1661728291922,-22.5,-64.7300343285673));
#249=CARTESIAN_POINT('',(87.6661728291922,-30.,-66.4615457620091));
#250=CARTESIAN_POINT('',(87.6661728291922,-15.,-62.9985228951256));
#251=CARTESIAN_POINT('',(87.6661728291922,-28.0623334075673,-66.0142001808097));
#252=CARTESIAN_POINT('',(57.6661728291922,-15.,-62.9985228951256));
#253=CARTESIAN_POINT('',(65.1661728291922,-15.,-62.9985228951256));
#254=CARTESIAN_POINT('',(57.6661728291922,-30.,-66.4615457620091));
#255=CARTESIAN_POINT('',(57.6661728291922,19.4075177499119,-55.0549215110827));
#256=CARTESIAN_POINT('',(65.1661728291922,-30.,-66.4615457620091));
#257=CARTESIAN_POINT('Origin',(87.6661728291922,-30.,-82.9985228951256));
#258=CARTESIAN_POINT('',(87.6661728291922,-30.,-82.9985228951256));
#259=CARTESIAN_POINT('',(87.6661728291922,-30.,-82.9985228951256));
#260=CARTESIAN_POINT('',(87.6661728291922,70.,-82.9985228951256));
#261=CARTESIAN_POINT('',(87.6661728291922,-30.,-82.9985228951256));
#262=CARTESIAN_POINT('',(87.6661728291922,70.,-62.9985228951256));
#263=CARTESIAN_POINT('',(87.6661728291922,70.,-82.9985228951256));
#264=CARTESIAN_POINT('',(87.6661728291922,-30.,-62.9985228951256));
#265=CARTESIAN_POINT('Origin',(57.6661728291922,-30.,-82.9985228951256));
#266=CARTESIAN_POINT('',(57.6661728291922,-30.,-82.9985228951256));
#267=CARTESIAN_POINT('',(57.6661728291922,-30.,-82.9985228951256));
#268=CARTESIAN_POINT('',(57.6661728291922,-30.,-82.9985228951256));
#269=CARTESIAN_POINT('Origin',(57.6661728291922,70.,-82.9985228951256));
#270=CARTESIAN_POINT('',(57.6661728291922,70.,-62.9985228951256));
#271=CARTESIAN_POINT('',(57.6661728291922,70.,-62.9985228951256));
#272=CARTESIAN_POINT('',(57.6661728291922,70.,-82.9985228951256));
#273=CARTESIAN_POINT('',(57.6661728291922,70.,-82.9985228951256));
#274=CARTESIAN_POINT('',(57.6661728291922,70.,-82.9985228951256));
#275=CARTESIAN_POINT('Origin',(87.6661728291922,70.,-82.9985228951256));
#276=CARTESIAN_POINT('',(87.6661728291922,70.,-82.9985228951256));
#277=CARTESIAN_POINT('',(87.6661728291922,70.,-62.9985228951256));
#278=CARTESIAN_POINT('Origin',(72.6661728291922,20.,-62.9985228951256));
#279=CARTESIAN_POINT('Origin',(72.6661728291922,20.,-82.9985228951256));
#280=UNCERTAINTY_MEASURE_WITH_UNIT(LENGTH_MEASURE(0.01),#284,
'DISTANCE_ACCURACY_VALUE',
'Maximum model space distance between geometric entities at asserted c
onnectivities');
#281=UNCERTAINTY_MEASURE_WITH_UNIT(LENGTH_MEASURE(0.01),#284,
'DISTANCE_ACCURACY_VALUE',
'Maximum model space distance between geometric entities at asserted c
onnectivities');
#282=(
GEOMETRIC_REPRESENTATION_CONTEXT(3)
GLOBAL_UNCERTAINTY_ASSIGNED_CONTEXT((#280))
GLOBAL_UNIT_ASSIGNED_CONTEXT((#284,#286,#287))
REPRESENTATION_CONTEXT('','3D')
);
#283=(
GEOMETRIC_REPRESENTATION_CONTEXT(3)
GLOBAL_UNCERTAINTY_ASSIGNED_CONTEXT((#281))
GLOBAL_UNIT_ASSIGNED_CONTEXT((#284,#286,#287))
REPRESENTATION_CONTEXT('','3D')
);
#284=(
LENGTH_UNIT()
NAMED_UNIT(*)
SI_UNIT(.MILLI.,.METRE.)
);
#285=(
LENGTH_UNIT()
NAMED_UNIT(*)
SI_UNIT(.CENTI.,.METRE.)
);
#286=(
NAMED_UNIT(*)
PLANE_ANGLE_UNIT()
SI_UNIT($,.RADIAN.)
);
#287=(
NAMED_UNIT(*)
SI_UNIT($,.STERADIAN.)
SOLID_ANGLE_UNIT()
);
#288=SHAPE_DEFINITION_REPRESENTATION(#289,#290);
#289=PRODUCT_DEFINITION_SHAPE('',$,#292);
#290=SHAPE_REPRESENTATION('',(#181),#282);
#291=PRODUCT_DEFINITION_CONTEXT('part definition',#296,'design');
#292=PRODUCT_DEFINITION('01_Chamfer_as Chamfer_big_v01',
'CHAMFER_01_angle 13\X\B0_small_v01',#293,#291);
#293=PRODUCT_DEFINITION_FORMATION('',$,#298);
#294=PRODUCT_RELATED_PRODUCT_CATEGORY('CHAMFER_01_angle 13\X\B0_small_
v01','CHAMFER_01_angle 13\X\B0_small_v01',(#298));
#295=APPLICATION_PROTOCOL_DEFINITION('international standard',
'automotive_design',2009,#296);
#296=APPLICATION_CONTEXT(
'Core Data for Automotive Mechanical Design Process');
#297=PRODUCT_CONTEXT('part definition',#296,'mechanical');
#298=PRODUCT('01_Chamfer_as Chamfer_big_v01',
'CHAMFER_01_angle 13\X\B0_small_v01',$,(#297));
#299=PRESENTATION_STYLE_ASSIGNMENT((#300));
#300=SURFACE_STYLE_USAGE(.BOTH.,#303);
#301=SURFACE_STYLE_RENDERING_WITH_PROPERTIES($,#307,(#302));
#302=SURFACE_STYLE_TRANSPARENT(0.);
#303=SURFACE_SIDE_STYLE('',(#304,#301));
#304=SURFACE_STYLE_FILL_AREA(#305);
#305=FILL_AREA_STYLE('',(#306));
#306=FILL_AREA_STYLE_COLOUR('',#307);
#307=COLOUR_RGB('',0.749019607843137,0.749019607843137,0.749019607843137);
ENDSEC;
END-ISO-10303-21;
