ISO-10303-21;
HEADER;
/* Generated by software containing ST-Developer
 * from STEP Tools, Inc. (www.steptools.com) 
 */

FILE_DESCRIPTION(
/* description */ (''),
/* implementation_level */ '2;1');

FILE_NAME(
/* name */ 
'C:\\Users\\pschwitalla\\OneDrive - igus GmbH\\Documents\\190520_Platt
form Tribocut\\01_Instant Quoting\\L\X\D6SUNGEN\\Oroox\\03_CNC calcula
tion\\40_Calculations\\Pockets\\3.1_ANGLED FLOOR Pocket_floor fillets_
v01.stp',
/* time_stamp */ '2022-03-28T19:32:02+02:00',
/* author */ ('pschwitalla'),
/* organization */ ('igus GmbH'),
/* preprocessor_version */ 'ST-DEVELOPER v18.1',
/* originating_system */ 'Autodesk Inventor 2020',
/* authorisation */ '');

FILE_SCHEMA (('AUTOMOTIVE_DESIGN { 1 0 10303 214 3 1 1 }'));
ENDSEC;

DATA;
#10=MECHANICAL_DESIGN_GEOMETRIC_PRESENTATION_REPRESENTATION('',(#13),#284);
#11=SHAPE_REPRESENTATION_RELATIONSHIP('SRR','None',#291,#12);
#12=ADVANCED_BREP_SHAPE_REPRESENTATION('',(#14),#283);
#13=STYLED_ITEM('',(#300),#14);
#14=MANIFOLD_SOLID_BREP('Solid1',#168);
#15=PLANE('',#185);
#16=PLANE('',#186);
#17=PLANE('',#187);
#18=PLANE('',#188);
#19=PLANE('',#189);
#20=PLANE('',#190);
#21=PLANE('',#191);
#22=PLANE('',#192);
#23=FACE_OUTER_BOUND('',#32,.T.);
#24=FACE_OUTER_BOUND('',#33,.T.);
#25=FACE_OUTER_BOUND('',#34,.T.);
#26=FACE_OUTER_BOUND('',#35,.T.);
#27=FACE_OUTER_BOUND('',#36,.T.);
#28=FACE_OUTER_BOUND('',#37,.T.);
#29=FACE_OUTER_BOUND('',#38,.T.);
#30=FACE_OUTER_BOUND('',#39,.T.);
#31=FACE_OUTER_BOUND('',#40,.T.);
#32=EDGE_LOOP('',(#116,#117,#118,#119));
#33=EDGE_LOOP('',(#120,#121,#122,#123));
#34=EDGE_LOOP('',(#124,#125,#126,#127));
#35=EDGE_LOOP('',(#128,#129,#130,#131));
#36=EDGE_LOOP('',(#132,#133,#134,#135));
#37=EDGE_LOOP('',(#136,#137,#138,#139,#140,#141,#142));
#38=EDGE_LOOP('',(#143,#144,#145,#146));
#39=EDGE_LOOP('',(#147,#148,#149,#150,#151,#152,#153));
#40=EDGE_LOOP('',(#154,#155,#156,#157));
#41=LINE('',#242,#60);
#42=LINE('',#245,#61);
#43=LINE('',#248,#62);
#44=LINE('',#250,#63);
#45=LINE('',#251,#64);
#46=LINE('',#254,#65);
#47=LINE('',#256,#66);
#48=LINE('',#257,#67);
#49=LINE('',#260,#68);
#50=LINE('',#262,#69);
#51=LINE('',#263,#70);
#52=LINE('',#266,#71);
#53=LINE('',#268,#72);
#54=LINE('',#269,#73);
#55=LINE('',#272,#74);
#56=LINE('',#273,#75);
#57=LINE('',#276,#76);
#58=LINE('',#277,#77);
#59=LINE('',#279,#78);
#60=VECTOR('',#199,10.);
#61=VECTOR('',#202,10.);
#62=VECTOR('',#205,10.);
#63=VECTOR('',#206,10.);
#64=VECTOR('',#207,10.);
#65=VECTOR('',#210,10.);
#66=VECTOR('',#211,10.);
#67=VECTOR('',#212,10.);
#68=VECTOR('',#215,10.);
#69=VECTOR('',#216,10.);
#70=VECTOR('',#217,10.);
#71=VECTOR('',#220,10.);
#72=VECTOR('',#221,10.);
#73=VECTOR('',#222,10.);
#74=VECTOR('',#225,10.);
#75=VECTOR('',#226,10.);
#76=VECTOR('',#229,10.);
#77=VECTOR('',#230,10.);
#78=VECTOR('',#233,10.);
#79=CIRCLE('',#183,4.);
#80=CIRCLE('',#184,4.);
#81=VERTEX_POINT('',#238);
#82=VERTEX_POINT('',#239);
#83=VERTEX_POINT('',#241);
#84=VERTEX_POINT('',#243);
#85=VERTEX_POINT('',#247);
#86=VERTEX_POINT('',#249);
#87=VERTEX_POINT('',#253);
#88=VERTEX_POINT('',#255);
#89=VERTEX_POINT('',#259);
#90=VERTEX_POINT('',#261);
#91=VERTEX_POINT('',#265);
#92=VERTEX_POINT('',#267);
#93=VERTEX_POINT('',#271);
#94=VERTEX_POINT('',#275);
#95=EDGE_CURVE('',#81,#82,#79,.T.);
#96=EDGE_CURVE('',#82,#83,#41,.T.);
#97=EDGE_CURVE('',#83,#84,#80,.T.);
#98=EDGE_CURVE('',#84,#81,#42,.T.);
#99=EDGE_CURVE('',#85,#82,#43,.T.);
#100=EDGE_CURVE('',#86,#85,#44,.T.);
#101=EDGE_CURVE('',#83,#86,#45,.T.);
#102=EDGE_CURVE('',#87,#84,#46,.T.);
#103=EDGE_CURVE('',#88,#87,#47,.T.);
#104=EDGE_CURVE('',#81,#88,#48,.T.);
#105=EDGE_CURVE('',#89,#87,#49,.T.);
#106=EDGE_CURVE('',#89,#90,#50,.T.);
#107=EDGE_CURVE('',#90,#88,#51,.T.);
#108=EDGE_CURVE('',#85,#91,#52,.T.);
#109=EDGE_CURVE('',#91,#92,#53,.T.);
#110=EDGE_CURVE('',#92,#86,#54,.T.);
#111=EDGE_CURVE('',#93,#92,#55,.T.);
#112=EDGE_CURVE('',#93,#89,#56,.T.);
#113=EDGE_CURVE('',#94,#93,#57,.T.);
#114=EDGE_CURVE('',#94,#91,#58,.T.);
#115=EDGE_CURVE('',#90,#94,#59,.T.);
#116=ORIENTED_EDGE('',*,*,#95,.T.);
#117=ORIENTED_EDGE('',*,*,#96,.T.);
#118=ORIENTED_EDGE('',*,*,#97,.T.);
#119=ORIENTED_EDGE('',*,*,#98,.T.);
#120=ORIENTED_EDGE('',*,*,#96,.F.);
#121=ORIENTED_EDGE('',*,*,#99,.F.);
#122=ORIENTED_EDGE('',*,*,#100,.F.);
#123=ORIENTED_EDGE('',*,*,#101,.F.);
#124=ORIENTED_EDGE('',*,*,#98,.F.);
#125=ORIENTED_EDGE('',*,*,#102,.F.);
#126=ORIENTED_EDGE('',*,*,#103,.F.);
#127=ORIENTED_EDGE('',*,*,#104,.F.);
#128=ORIENTED_EDGE('',*,*,#103,.T.);
#129=ORIENTED_EDGE('',*,*,#105,.F.);
#130=ORIENTED_EDGE('',*,*,#106,.T.);
#131=ORIENTED_EDGE('',*,*,#107,.T.);
#132=ORIENTED_EDGE('',*,*,#100,.T.);
#133=ORIENTED_EDGE('',*,*,#108,.T.);
#134=ORIENTED_EDGE('',*,*,#109,.T.);
#135=ORIENTED_EDGE('',*,*,#110,.T.);
#136=ORIENTED_EDGE('',*,*,#101,.T.);
#137=ORIENTED_EDGE('',*,*,#110,.F.);
#138=ORIENTED_EDGE('',*,*,#111,.F.);
#139=ORIENTED_EDGE('',*,*,#112,.T.);
#140=ORIENTED_EDGE('',*,*,#105,.T.);
#141=ORIENTED_EDGE('',*,*,#102,.T.);
#142=ORIENTED_EDGE('',*,*,#97,.F.);
#143=ORIENTED_EDGE('',*,*,#113,.T.);
#144=ORIENTED_EDGE('',*,*,#111,.T.);
#145=ORIENTED_EDGE('',*,*,#109,.F.);
#146=ORIENTED_EDGE('',*,*,#114,.F.);
#147=ORIENTED_EDGE('',*,*,#104,.T.);
#148=ORIENTED_EDGE('',*,*,#107,.F.);
#149=ORIENTED_EDGE('',*,*,#115,.T.);
#150=ORIENTED_EDGE('',*,*,#114,.T.);
#151=ORIENTED_EDGE('',*,*,#108,.F.);
#152=ORIENTED_EDGE('',*,*,#99,.T.);
#153=ORIENTED_EDGE('',*,*,#95,.F.);
#154=ORIENTED_EDGE('',*,*,#115,.F.);
#155=ORIENTED_EDGE('',*,*,#106,.F.);
#156=ORIENTED_EDGE('',*,*,#112,.F.);
#157=ORIENTED_EDGE('',*,*,#113,.F.);
#158=CYLINDRICAL_SURFACE('',#182,4.);
#159=ADVANCED_FACE('',(#23),#158,.F.);
#160=ADVANCED_FACE('',(#24),#15,.F.);
#161=ADVANCED_FACE('',(#25),#16,.F.);
#162=ADVANCED_FACE('',(#26),#17,.T.);
#163=ADVANCED_FACE('',(#27),#18,.T.);
#164=ADVANCED_FACE('',(#28),#19,.T.);
#165=ADVANCED_FACE('',(#29),#20,.T.);
#166=ADVANCED_FACE('',(#30),#21,.T.);
#167=ADVANCED_FACE('',(#31),#22,.F.);
#168=CLOSED_SHELL('',(#159,#160,#161,#162,#163,#164,#165,#166,#167));
#169=DERIVED_UNIT_ELEMENT(#171,1.);
#170=DERIVED_UNIT_ELEMENT(#286,3.);
#171=(
MASS_UNIT()
NAMED_UNIT(*)
SI_UNIT($,.GRAM.)
);
#172=DERIVED_UNIT((#169,#170));
#173=MEASURE_REPRESENTATION_ITEM('density measure',
POSITIVE_RATIO_MEASURE(1.),#172);
#174=PROPERTY_DEFINITION_REPRESENTATION(#179,#176);
#175=PROPERTY_DEFINITION_REPRESENTATION(#180,#177);
#176=REPRESENTATION('material name',(#178),#283);
#177=REPRESENTATION('density',(#173),#283);
#178=DESCRIPTIVE_REPRESENTATION_ITEM('Generic','Generic');
#179=PROPERTY_DEFINITION('material property','material name',#293);
#180=PROPERTY_DEFINITION('material property','density of part',#293);
#181=AXIS2_PLACEMENT_3D('placement',#236,#193,#194);
#182=AXIS2_PLACEMENT_3D('',#237,#195,#196);
#183=AXIS2_PLACEMENT_3D('',#240,#197,#198);
#184=AXIS2_PLACEMENT_3D('',#244,#200,#201);
#185=AXIS2_PLACEMENT_3D('',#246,#203,#204);
#186=AXIS2_PLACEMENT_3D('',#252,#208,#209);
#187=AXIS2_PLACEMENT_3D('',#258,#213,#214);
#188=AXIS2_PLACEMENT_3D('',#264,#218,#219);
#189=AXIS2_PLACEMENT_3D('',#270,#223,#224);
#190=AXIS2_PLACEMENT_3D('',#274,#227,#228);
#191=AXIS2_PLACEMENT_3D('',#278,#231,#232);
#192=AXIS2_PLACEMENT_3D('',#280,#234,#235);
#193=DIRECTION('axis',(0.,0.,1.));
#194=DIRECTION('refdir',(1.,0.,0.));
#195=DIRECTION('center_axis',(-1.,-2.368475785867E-16,0.));
#196=DIRECTION('ref_axis',(0.,0.793353340291235,-0.60876142900872));
#197=DIRECTION('center_axis',(1.,2.66453525910038E-16,5.91645678915759E-32));
#198=DIRECTION('ref_axis',(0.,0.793353340291235,-0.60876142900872));
#199=DIRECTION('',(-1.,-2.368475785867E-16,-1.09476442525376E-47));
#200=DIRECTION('center_axis',(-1.,0.,0.));
#201=DIRECTION('ref_axis',(0.,0.793353340291235,-0.60876142900872));
#202=DIRECTION('',(1.,2.368475785867E-16,-1.19059550266054E-32));
#203=DIRECTION('center_axis',(-2.368475785867E-16,1.,2.22044604925031E-16));
#204=DIRECTION('ref_axis',(-1.09476442525376E-47,2.22044604925031E-16,-1.));
#205=DIRECTION('',(-1.09476442525376E-47,2.22044604925031E-16,-1.));
#206=DIRECTION('',(1.,2.368475785867E-16,5.25907270147341E-32));
#207=DIRECTION('',(0.,-2.22044604925031E-16,1.));
#208=DIRECTION('center_axis',(-6.1300664124654E-17,0.258819045102521,-0.965925826289068));
#209=DIRECTION('ref_axis',(2.57374342182289E-16,-0.965925826289068,-0.258819045102521));
#210=DIRECTION('',(0.,0.965925826289068,0.258819045102521));
#211=DIRECTION('',(-1.,-2.368475785867E-16,-1.27607641380008E-32));
#212=DIRECTION('',(2.57374342182289E-16,-0.965925826289068,-0.258819045102521));
#213=DIRECTION('center_axis',(2.368475785867E-16,-1.,-2.22044604925031E-16));
#214=DIRECTION('ref_axis',(1.,2.368475785867E-16,5.25907270147341E-32));
#215=DIRECTION('',(0.,-2.22044604925031E-16,1.));
#216=DIRECTION('',(1.,2.368475785867E-16,5.25907270147341E-32));
#217=DIRECTION('',(0.,-2.22044604925031E-16,1.));
#218=DIRECTION('center_axis',(0.,-2.22044604925031E-16,1.));
#219=DIRECTION('ref_axis',(0.,-1.,-2.22044604925031E-16));
#220=DIRECTION('',(-2.66453525910038E-16,1.,2.22044604925031E-16));
#221=DIRECTION('',(-1.,-2.368475785867E-16,-5.25907270147341E-32));
#222=DIRECTION('',(0.,-1.,-2.22044604925031E-16));
#223=DIRECTION('center_axis',(-1.,0.,0.));
#224=DIRECTION('ref_axis',(0.,-1.,-2.22044604925031E-16));
#225=DIRECTION('',(0.,-2.22044604925031E-16,1.));
#226=DIRECTION('',(0.,-1.,-2.22044604925031E-16));
#227=DIRECTION('center_axis',(-2.368475785867E-16,1.,2.22044604925031E-16));
#228=DIRECTION('ref_axis',(-1.,-2.368475785867E-16,-5.25907270147341E-32));
#229=DIRECTION('',(-1.,-2.368475785867E-16,-5.25907270147341E-32));
#230=DIRECTION('',(0.,-2.22044604925031E-16,1.));
#231=DIRECTION('center_axis',(1.,2.66453525910038E-16,5.91645678915759E-32));
#232=DIRECTION('ref_axis',(-2.66453525910038E-16,1.,2.22044604925031E-16));
#233=DIRECTION('',(-2.66453525910038E-16,1.,2.22044604925031E-16));
#234=DIRECTION('center_axis',(0.,-2.22044604925031E-16,1.));
#235=DIRECTION('ref_axis',(0.,-1.,-2.22044604925031E-16));
#236=CARTESIAN_POINT('',(0.,0.,0.));
#237=CARTESIAN_POINT('Origin',(87.6661728291922,-64.,5.07078505679026));
#238=CARTESIAN_POINT('',(87.6661728291922,-62.9647238195899,1.20708175163399));
#239=CARTESIAN_POINT('',(87.6661728291922,-60.,5.07078505679026));
#240=CARTESIAN_POINT('Origin',(87.6661728291922,-64.,5.07078505679026));
#241=CARTESIAN_POINT('',(-62.3338271708079,-60.,5.07078505679026));
#242=CARTESIAN_POINT('',(87.6661728291922,-60.,5.07078505679026));
#243=CARTESIAN_POINT('',(-62.3338271708079,-62.9647238195899,1.207081751634));
#244=CARTESIAN_POINT('Origin',(-62.3338271708078,-64.,5.07078505679026));
#245=CARTESIAN_POINT('',(87.6661728291922,-62.9647238195899,1.20708175163399));
#246=CARTESIAN_POINT('Origin',(87.6661728291922,-60.,22.0014771048744));
#247=CARTESIAN_POINT('',(87.6661728291922,-60.,22.0014771048744));
#248=CARTESIAN_POINT('',(87.6661728291922,-60.,4.50147710487442));
#249=CARTESIAN_POINT('',(-62.3338271708079,-60.,22.0014771048744));
#250=CARTESIAN_POINT('',(50.1661728291922,-60.,22.0014771048744));
#251=CARTESIAN_POINT('',(-62.3338271708079,-60.,4.50147710487442));
#252=CARTESIAN_POINT('Origin',(87.6661728291922,-60.,2.00147710487443));
#253=CARTESIAN_POINT('',(-62.3338271708079,-100.,-8.7164905923705));
#254=CARTESIAN_POINT('',(-62.3338271708079,12.7660161513775,21.4990723690661));
#255=CARTESIAN_POINT('',(87.6661728291922,-100.,-8.7164905923705));
#256=CARTESIAN_POINT('',(12.6661728291922,-100.,-8.71649059237049));
#257=CARTESIAN_POINT('',(87.6661728291922,-80.5352540378444,-3.50092763093394));
#258=CARTESIAN_POINT('Origin',(-62.3338271708079,-100.,-12.9985228951256));
#259=CARTESIAN_POINT('',(-62.3338271708079,-100.,-12.9985228951256));
#260=CARTESIAN_POINT('',(-62.3338271708079,-100.,-12.9985228951256));
#261=CARTESIAN_POINT('',(87.6661728291922,-100.,-12.9985228951256));
#262=CARTESIAN_POINT('',(-62.3338271708079,-100.,-12.9985228951256));
#263=CARTESIAN_POINT('',(87.6661728291922,-100.,-12.9985228951256));
#264=CARTESIAN_POINT('Origin',(12.6661728291922,-8.88178419700125E-15,22.0014771048744));
#265=CARTESIAN_POINT('',(87.6661728291922,100.,22.0014771048745));
#266=CARTESIAN_POINT('',(87.6661728291922,-100.,22.0014771048744));
#267=CARTESIAN_POINT('',(-62.3338271708079,100.,22.0014771048745));
#268=CARTESIAN_POINT('',(87.6661728291922,100.,22.0014771048745));
#269=CARTESIAN_POINT('',(-62.3338271708079,100.,22.0014771048745));
#270=CARTESIAN_POINT('Origin',(-62.3338271708079,100.,-12.9985228951256));
#271=CARTESIAN_POINT('',(-62.3338271708079,100.,-12.9985228951256));
#272=CARTESIAN_POINT('',(-62.3338271708079,100.,-12.9985228951256));
#273=CARTESIAN_POINT('',(-62.3338271708079,100.,-12.9985228951256));
#274=CARTESIAN_POINT('Origin',(87.6661728291922,100.,-12.9985228951256));
#275=CARTESIAN_POINT('',(87.6661728291922,100.,-12.9985228951256));
#276=CARTESIAN_POINT('',(87.6661728291922,100.,-12.9985228951256));
#277=CARTESIAN_POINT('',(87.6661728291922,100.,-12.9985228951256));
#278=CARTESIAN_POINT('Origin',(87.6661728291922,-100.,-12.9985228951256));
#279=CARTESIAN_POINT('',(87.6661728291922,-100.,-12.9985228951256));
#280=CARTESIAN_POINT('Origin',(12.6661728291922,-2.22044604925031E-15,-12.9985228951256));
#281=UNCERTAINTY_MEASURE_WITH_UNIT(LENGTH_MEASURE(0.01),#285,
'DISTANCE_ACCURACY_VALUE',
'Maximum model space distance between geometric entities at asserted c
onnectivities');
#282=UNCERTAINTY_MEASURE_WITH_UNIT(LENGTH_MEASURE(0.01),#285,
'DISTANCE_ACCURACY_VALUE',
'Maximum model space distance between geometric entities at asserted c
onnectivities');
#283=(
GEOMETRIC_REPRESENTATION_CONTEXT(3)
GLOBAL_UNCERTAINTY_ASSIGNED_CONTEXT((#281))
GLOBAL_UNIT_ASSIGNED_CONTEXT((#285,#287,#288))
REPRESENTATION_CONTEXT('','3D')
);
#284=(
GEOMETRIC_REPRESENTATION_CONTEXT(3)
GLOBAL_UNCERTAINTY_ASSIGNED_CONTEXT((#282))
GLOBAL_UNIT_ASSIGNED_CONTEXT((#285,#287,#288))
REPRESENTATION_CONTEXT('','3D')
);
#285=(
LENGTH_UNIT()
NAMED_UNIT(*)
SI_UNIT(.MILLI.,.METRE.)
);
#286=(
LENGTH_UNIT()
NAMED_UNIT(*)
SI_UNIT(.CENTI.,.METRE.)
);
#287=(
NAMED_UNIT(*)
PLANE_ANGLE_UNIT()
SI_UNIT($,.RADIAN.)
);
#288=(
NAMED_UNIT(*)
SI_UNIT($,.STERADIAN.)
SOLID_ANGLE_UNIT()
);
#289=SHAPE_DEFINITION_REPRESENTATION(#290,#291);
#290=PRODUCT_DEFINITION_SHAPE('',$,#293);
#291=SHAPE_REPRESENTATION('',(#181),#283);
#292=PRODUCT_DEFINITION_CONTEXT('part definition',#297,'design');
#293=PRODUCT_DEFINITION(
'Open Pocket_04_planar angled floor, floor fillets_v01',
'3.1_ANGLED FLOOR Pocket_floor fillets_v01',#294,#292);
#294=PRODUCT_DEFINITION_FORMATION('',$,#299);
#295=PRODUCT_RELATED_PRODUCT_CATEGORY(
'3.1_ANGLED FLOOR Pocket_floor fillets_v01',
'3.1_ANGLED FLOOR Pocket_floor fillets_v01',(#299));
#296=APPLICATION_PROTOCOL_DEFINITION('international standard',
'automotive_design',2009,#297);
#297=APPLICATION_CONTEXT(
'Core Data for Automotive Mechanical Design Process');
#298=PRODUCT_CONTEXT('part definition',#297,'mechanical');
#299=PRODUCT('Open Pocket_04_planar angled floor, floor fillets_v01',
'3.1_ANGLED FLOOR Pocket_floor fillets_v01',$,(#298));
#300=PRESENTATION_STYLE_ASSIGNMENT((#301));
#301=SURFACE_STYLE_USAGE(.BOTH.,#304);
#302=SURFACE_STYLE_RENDERING_WITH_PROPERTIES($,#308,(#303));
#303=SURFACE_STYLE_TRANSPARENT(0.);
#304=SURFACE_SIDE_STYLE('',(#305,#302));
#305=SURFACE_STYLE_FILL_AREA(#306);
#306=FILL_AREA_STYLE('',(#307));
#307=FILL_AREA_STYLE_COLOUR('',#308);
#308=COLOUR_RGB('',0.749019607843137,0.749019607843137,0.749019607843137);
ENDSEC;
END-ISO-10303-21;
