ISO-10303-21;
HEADER;
/* Generated by software containing ST-Developer
 * from STEP Tools, Inc. (www.steptools.com) 
 */

FILE_DESCRIPTION(
/* description */ (''),
/* implementation_level */ '2;1');

FILE_NAME(
/* name */ 
'C:\\Users\\pschwitalla\\OneDrive - igus GmbH\\Documents\\190520_Platt
form Tribocut\\01_Instant Quoting\\L\X\D6SUNGEN\\Oroox\\03_CNC calcula
tion\\40_Calculations\\Pockets\\1.4_CLOSED POCKET_planar floor, intern
al fillets, floor fillets_v01.stp',
/* time_stamp */ '2022-03-28T19:19:14+02:00',
/* author */ ('pschwitalla'),
/* organization */ ('igus GmbH'),
/* preprocessor_version */ 'ST-DEVELOPER v18.1',
/* originating_system */ 'Autodesk Inventor 2020',
/* authorisation */ '');

FILE_SCHEMA (('AUTOMOTIVE_DESIGN { 1 0 10303 214 3 1 1 }'));
ENDSEC;

DATA;
#10=MECHANICAL_DESIGN_GEOMETRIC_PRESENTATION_REPRESENTATION('',(#13),#629);
#11=SHAPE_REPRESENTATION_RELATIONSHIP('SRR','None',#636,#12);
#12=ADVANCED_BREP_SHAPE_REPRESENTATION('',(#14),#628);
#13=STYLED_ITEM('',(#645),#14);
#14=MANIFOLD_SOLID_BREP('Solid1',#361);
#15=FACE_BOUND('',#76,.T.);
#16=PLANE('',#397);
#17=PLANE('',#400);
#18=PLANE('',#401);
#19=PLANE('',#402);
#20=PLANE('',#405);
#21=PLANE('',#408);
#22=PLANE('',#409);
#23=PLANE('',#410);
#24=PLANE('',#411);
#25=PLANE('',#412);
#26=PLANE('',#413);
#27=SPHERICAL_SURFACE('',#381,3.);
#28=SPHERICAL_SURFACE('',#386,3.);
#29=SPHERICAL_SURFACE('',#391,3.);
#30=SPHERICAL_SURFACE('',#393,3.);
#31=FACE_OUTER_BOUND('',#54,.T.);
#32=FACE_OUTER_BOUND('',#55,.T.);
#33=FACE_OUTER_BOUND('',#56,.T.);
#34=FACE_OUTER_BOUND('',#57,.T.);
#35=FACE_OUTER_BOUND('',#58,.T.);
#36=FACE_OUTER_BOUND('',#59,.T.);
#37=FACE_OUTER_BOUND('',#60,.T.);
#38=FACE_OUTER_BOUND('',#61,.T.);
#39=FACE_OUTER_BOUND('',#62,.T.);
#40=FACE_OUTER_BOUND('',#63,.T.);
#41=FACE_OUTER_BOUND('',#64,.T.);
#42=FACE_OUTER_BOUND('',#65,.T.);
#43=FACE_OUTER_BOUND('',#66,.T.);
#44=FACE_OUTER_BOUND('',#67,.T.);
#45=FACE_OUTER_BOUND('',#68,.T.);
#46=FACE_OUTER_BOUND('',#69,.T.);
#47=FACE_OUTER_BOUND('',#70,.T.);
#48=FACE_OUTER_BOUND('',#71,.T.);
#49=FACE_OUTER_BOUND('',#72,.T.);
#50=FACE_OUTER_BOUND('',#73,.T.);
#51=FACE_OUTER_BOUND('',#74,.T.);
#52=FACE_OUTER_BOUND('',#75,.T.);
#53=FACE_OUTER_BOUND('',#77,.T.);
#54=EDGE_LOOP('',(#234,#235,#236,#237));
#55=EDGE_LOOP('',(#238,#239,#240,#241));
#56=EDGE_LOOP('',(#242,#243,#244));
#57=EDGE_LOOP('',(#245,#246,#247,#248));
#58=EDGE_LOOP('',(#249,#250,#251));
#59=EDGE_LOOP('',(#252,#253,#254,#255));
#60=EDGE_LOOP('',(#256,#257,#258));
#61=EDGE_LOOP('',(#259,#260,#261));
#62=EDGE_LOOP('',(#262,#263,#264,#265));
#63=EDGE_LOOP('',(#266,#267,#268,#269));
#64=EDGE_LOOP('',(#270,#271,#272,#273));
#65=EDGE_LOOP('',(#274,#275,#276,#277));
#66=EDGE_LOOP('',(#278,#279,#280,#281));
#67=EDGE_LOOP('',(#282,#283,#284,#285));
#68=EDGE_LOOP('',(#286,#287,#288,#289));
#69=EDGE_LOOP('',(#290,#291,#292,#293));
#70=EDGE_LOOP('',(#294,#295,#296,#297));
#71=EDGE_LOOP('',(#298,#299,#300,#301));
#72=EDGE_LOOP('',(#302,#303,#304,#305));
#73=EDGE_LOOP('',(#306,#307,#308,#309));
#74=EDGE_LOOP('',(#310,#311,#312,#313));
#75=EDGE_LOOP('',(#314,#315,#316,#317));
#76=EDGE_LOOP('',(#318,#319,#320,#321,#322,#323,#324,#325));
#77=EDGE_LOOP('',(#326,#327,#328,#329));
#78=LINE('',#532,#110);
#79=LINE('',#535,#111);
#80=LINE('',#540,#112);
#81=LINE('',#543,#113);
#82=LINE('',#550,#114);
#83=LINE('',#553,#115);
#84=LINE('',#559,#116);
#85=LINE('',#562,#117);
#86=LINE('',#569,#118);
#87=LINE('',#572,#119);
#88=LINE('',#575,#120);
#89=LINE('',#576,#121);
#90=LINE('',#579,#122);
#91=LINE('',#583,#123);
#92=LINE('',#584,#124);
#93=LINE('',#588,#125);
#94=LINE('',#589,#126);
#95=LINE('',#593,#127);
#96=LINE('',#596,#128);
#97=LINE('',#597,#129);
#98=LINE('',#603,#130);
#99=LINE('',#605,#131);
#100=LINE('',#607,#132);
#101=LINE('',#608,#133);
#102=LINE('',#611,#134);
#103=LINE('',#613,#135);
#104=LINE('',#614,#136);
#105=LINE('',#617,#137);
#106=LINE('',#619,#138);
#107=LINE('',#620,#139);
#108=LINE('',#622,#140);
#109=LINE('',#623,#141);
#110=VECTOR('',#420,10.);
#111=VECTOR('',#423,10.);
#112=VECTOR('',#428,10.);
#113=VECTOR('',#431,10.);
#114=VECTOR('',#440,10.);
#115=VECTOR('',#443,10.);
#116=VECTOR('',#452,10.);
#117=VECTOR('',#455,10.);
#118=VECTOR('',#466,10.);
#119=VECTOR('',#469,10.);
#120=VECTOR('',#472,10.);
#121=VECTOR('',#473,10.);
#122=VECTOR('',#476,10.);
#123=VECTOR('',#481,10.);
#124=VECTOR('',#482,10.);
#125=VECTOR('',#487,10.);
#126=VECTOR('',#488,10.);
#127=VECTOR('',#493,10.);
#128=VECTOR('',#496,10.);
#129=VECTOR('',#497,10.);
#130=VECTOR('',#504,10.);
#131=VECTOR('',#505,10.);
#132=VECTOR('',#506,10.);
#133=VECTOR('',#507,10.);
#134=VECTOR('',#510,10.);
#135=VECTOR('',#511,10.);
#136=VECTOR('',#512,10.);
#137=VECTOR('',#515,10.);
#138=VECTOR('',#516,10.);
#139=VECTOR('',#517,10.);
#140=VECTOR('',#520,10.);
#141=VECTOR('',#521,10.);
#142=CIRCLE('',#376,3.);
#143=CIRCLE('',#377,3.);
#144=CIRCLE('',#379,3.);
#145=CIRCLE('',#380,3.);
#146=CIRCLE('',#382,3.);
#147=CIRCLE('',#384,3.);
#148=CIRCLE('',#385,3.);
#149=CIRCLE('',#387,3.);
#150=CIRCLE('',#389,3.);
#151=CIRCLE('',#390,3.);
#152=CIRCLE('',#392,3.);
#153=CIRCLE('',#394,3.);
#154=CIRCLE('',#396,3.);
#155=CIRCLE('',#399,3.);
#156=CIRCLE('',#404,3.);
#157=CIRCLE('',#407,3.);
#158=VERTEX_POINT('',#528);
#159=VERTEX_POINT('',#529);
#160=VERTEX_POINT('',#531);
#161=VERTEX_POINT('',#533);
#162=VERTEX_POINT('',#537);
#163=VERTEX_POINT('',#539);
#164=VERTEX_POINT('',#541);
#165=VERTEX_POINT('',#547);
#166=VERTEX_POINT('',#549);
#167=VERTEX_POINT('',#551);
#168=VERTEX_POINT('',#557);
#169=VERTEX_POINT('',#560);
#170=VERTEX_POINT('',#568);
#171=VERTEX_POINT('',#570);
#172=VERTEX_POINT('',#574);
#173=VERTEX_POINT('',#578);
#174=VERTEX_POINT('',#582);
#175=VERTEX_POINT('',#587);
#176=VERTEX_POINT('',#591);
#177=VERTEX_POINT('',#595);
#178=VERTEX_POINT('',#601);
#179=VERTEX_POINT('',#602);
#180=VERTEX_POINT('',#604);
#181=VERTEX_POINT('',#606);
#182=VERTEX_POINT('',#610);
#183=VERTEX_POINT('',#612);
#184=VERTEX_POINT('',#616);
#185=VERTEX_POINT('',#618);
#186=EDGE_CURVE('',#158,#159,#142,.T.);
#187=EDGE_CURVE('',#159,#160,#78,.T.);
#188=EDGE_CURVE('',#160,#161,#143,.T.);
#189=EDGE_CURVE('',#161,#158,#79,.T.);
#190=EDGE_CURVE('',#162,#160,#144,.T.);
#191=EDGE_CURVE('',#160,#163,#80,.T.);
#192=EDGE_CURVE('',#163,#164,#145,.T.);
#193=EDGE_CURVE('',#164,#162,#81,.T.);
#194=EDGE_CURVE('',#162,#161,#146,.T.);
#195=EDGE_CURVE('',#165,#163,#147,.T.);
#196=EDGE_CURVE('',#163,#166,#82,.T.);
#197=EDGE_CURVE('',#166,#167,#148,.T.);
#198=EDGE_CURVE('',#167,#165,#83,.T.);
#199=EDGE_CURVE('',#165,#164,#149,.T.);
#200=EDGE_CURVE('',#168,#166,#150,.T.);
#201=EDGE_CURVE('',#166,#159,#84,.T.);
#202=EDGE_CURVE('',#159,#169,#151,.T.);
#203=EDGE_CURVE('',#169,#168,#85,.T.);
#204=EDGE_CURVE('',#168,#167,#152,.T.);
#205=EDGE_CURVE('',#158,#169,#153,.T.);
#206=EDGE_CURVE('',#170,#165,#86,.T.);
#207=EDGE_CURVE('',#171,#170,#154,.T.);
#208=EDGE_CURVE('',#171,#164,#87,.T.);
#209=EDGE_CURVE('',#172,#167,#88,.T.);
#210=EDGE_CURVE('',#170,#172,#89,.T.);
#211=EDGE_CURVE('',#173,#168,#90,.T.);
#212=EDGE_CURVE('',#172,#173,#155,.T.);
#213=EDGE_CURVE('',#174,#169,#91,.T.);
#214=EDGE_CURVE('',#173,#174,#92,.T.);
#215=EDGE_CURVE('',#175,#171,#93,.T.);
#216=EDGE_CURVE('',#175,#162,#94,.T.);
#217=EDGE_CURVE('',#176,#175,#156,.T.);
#218=EDGE_CURVE('',#176,#161,#95,.T.);
#219=EDGE_CURVE('',#177,#176,#96,.T.);
#220=EDGE_CURVE('',#177,#158,#97,.T.);
#221=EDGE_CURVE('',#174,#177,#157,.T.);
#222=EDGE_CURVE('',#178,#179,#98,.T.);
#223=EDGE_CURVE('',#179,#180,#99,.T.);
#224=EDGE_CURVE('',#181,#180,#100,.T.);
#225=EDGE_CURVE('',#178,#181,#101,.T.);
#226=EDGE_CURVE('',#182,#178,#102,.T.);
#227=EDGE_CURVE('',#183,#181,#103,.T.);
#228=EDGE_CURVE('',#182,#183,#104,.T.);
#229=EDGE_CURVE('',#184,#182,#105,.T.);
#230=EDGE_CURVE('',#185,#183,#106,.T.);
#231=EDGE_CURVE('',#184,#185,#107,.T.);
#232=EDGE_CURVE('',#179,#184,#108,.T.);
#233=EDGE_CURVE('',#180,#185,#109,.T.);
#234=ORIENTED_EDGE('',*,*,#186,.T.);
#235=ORIENTED_EDGE('',*,*,#187,.T.);
#236=ORIENTED_EDGE('',*,*,#188,.T.);
#237=ORIENTED_EDGE('',*,*,#189,.T.);
#238=ORIENTED_EDGE('',*,*,#190,.T.);
#239=ORIENTED_EDGE('',*,*,#191,.T.);
#240=ORIENTED_EDGE('',*,*,#192,.T.);
#241=ORIENTED_EDGE('',*,*,#193,.T.);
#242=ORIENTED_EDGE('',*,*,#190,.F.);
#243=ORIENTED_EDGE('',*,*,#194,.T.);
#244=ORIENTED_EDGE('',*,*,#188,.F.);
#245=ORIENTED_EDGE('',*,*,#195,.T.);
#246=ORIENTED_EDGE('',*,*,#196,.T.);
#247=ORIENTED_EDGE('',*,*,#197,.T.);
#248=ORIENTED_EDGE('',*,*,#198,.T.);
#249=ORIENTED_EDGE('',*,*,#195,.F.);
#250=ORIENTED_EDGE('',*,*,#199,.T.);
#251=ORIENTED_EDGE('',*,*,#192,.F.);
#252=ORIENTED_EDGE('',*,*,#200,.T.);
#253=ORIENTED_EDGE('',*,*,#201,.T.);
#254=ORIENTED_EDGE('',*,*,#202,.T.);
#255=ORIENTED_EDGE('',*,*,#203,.T.);
#256=ORIENTED_EDGE('',*,*,#200,.F.);
#257=ORIENTED_EDGE('',*,*,#204,.T.);
#258=ORIENTED_EDGE('',*,*,#197,.F.);
#259=ORIENTED_EDGE('',*,*,#186,.F.);
#260=ORIENTED_EDGE('',*,*,#205,.T.);
#261=ORIENTED_EDGE('',*,*,#202,.F.);
#262=ORIENTED_EDGE('',*,*,#199,.F.);
#263=ORIENTED_EDGE('',*,*,#206,.F.);
#264=ORIENTED_EDGE('',*,*,#207,.F.);
#265=ORIENTED_EDGE('',*,*,#208,.T.);
#266=ORIENTED_EDGE('',*,*,#198,.F.);
#267=ORIENTED_EDGE('',*,*,#209,.F.);
#268=ORIENTED_EDGE('',*,*,#210,.F.);
#269=ORIENTED_EDGE('',*,*,#206,.T.);
#270=ORIENTED_EDGE('',*,*,#204,.F.);
#271=ORIENTED_EDGE('',*,*,#211,.F.);
#272=ORIENTED_EDGE('',*,*,#212,.F.);
#273=ORIENTED_EDGE('',*,*,#209,.T.);
#274=ORIENTED_EDGE('',*,*,#203,.F.);
#275=ORIENTED_EDGE('',*,*,#213,.F.);
#276=ORIENTED_EDGE('',*,*,#214,.F.);
#277=ORIENTED_EDGE('',*,*,#211,.T.);
#278=ORIENTED_EDGE('',*,*,#187,.F.);
#279=ORIENTED_EDGE('',*,*,#201,.F.);
#280=ORIENTED_EDGE('',*,*,#196,.F.);
#281=ORIENTED_EDGE('',*,*,#191,.F.);
#282=ORIENTED_EDGE('',*,*,#193,.F.);
#283=ORIENTED_EDGE('',*,*,#208,.F.);
#284=ORIENTED_EDGE('',*,*,#215,.F.);
#285=ORIENTED_EDGE('',*,*,#216,.T.);
#286=ORIENTED_EDGE('',*,*,#194,.F.);
#287=ORIENTED_EDGE('',*,*,#216,.F.);
#288=ORIENTED_EDGE('',*,*,#217,.F.);
#289=ORIENTED_EDGE('',*,*,#218,.T.);
#290=ORIENTED_EDGE('',*,*,#189,.F.);
#291=ORIENTED_EDGE('',*,*,#218,.F.);
#292=ORIENTED_EDGE('',*,*,#219,.F.);
#293=ORIENTED_EDGE('',*,*,#220,.T.);
#294=ORIENTED_EDGE('',*,*,#205,.F.);
#295=ORIENTED_EDGE('',*,*,#220,.F.);
#296=ORIENTED_EDGE('',*,*,#221,.F.);
#297=ORIENTED_EDGE('',*,*,#213,.T.);
#298=ORIENTED_EDGE('',*,*,#222,.T.);
#299=ORIENTED_EDGE('',*,*,#223,.T.);
#300=ORIENTED_EDGE('',*,*,#224,.F.);
#301=ORIENTED_EDGE('',*,*,#225,.F.);
#302=ORIENTED_EDGE('',*,*,#226,.T.);
#303=ORIENTED_EDGE('',*,*,#225,.T.);
#304=ORIENTED_EDGE('',*,*,#227,.F.);
#305=ORIENTED_EDGE('',*,*,#228,.F.);
#306=ORIENTED_EDGE('',*,*,#229,.T.);
#307=ORIENTED_EDGE('',*,*,#228,.T.);
#308=ORIENTED_EDGE('',*,*,#230,.F.);
#309=ORIENTED_EDGE('',*,*,#231,.F.);
#310=ORIENTED_EDGE('',*,*,#232,.T.);
#311=ORIENTED_EDGE('',*,*,#231,.T.);
#312=ORIENTED_EDGE('',*,*,#233,.F.);
#313=ORIENTED_EDGE('',*,*,#223,.F.);
#314=ORIENTED_EDGE('',*,*,#233,.T.);
#315=ORIENTED_EDGE('',*,*,#230,.T.);
#316=ORIENTED_EDGE('',*,*,#227,.T.);
#317=ORIENTED_EDGE('',*,*,#224,.T.);
#318=ORIENTED_EDGE('',*,*,#210,.T.);
#319=ORIENTED_EDGE('',*,*,#212,.T.);
#320=ORIENTED_EDGE('',*,*,#214,.T.);
#321=ORIENTED_EDGE('',*,*,#221,.T.);
#322=ORIENTED_EDGE('',*,*,#219,.T.);
#323=ORIENTED_EDGE('',*,*,#217,.T.);
#324=ORIENTED_EDGE('',*,*,#215,.T.);
#325=ORIENTED_EDGE('',*,*,#207,.T.);
#326=ORIENTED_EDGE('',*,*,#232,.F.);
#327=ORIENTED_EDGE('',*,*,#222,.F.);
#328=ORIENTED_EDGE('',*,*,#226,.F.);
#329=ORIENTED_EDGE('',*,*,#229,.F.);
#330=CYLINDRICAL_SURFACE('',#375,3.);
#331=CYLINDRICAL_SURFACE('',#378,3.);
#332=CYLINDRICAL_SURFACE('',#383,3.);
#333=CYLINDRICAL_SURFACE('',#388,3.);
#334=CYLINDRICAL_SURFACE('',#395,3.);
#335=CYLINDRICAL_SURFACE('',#398,3.);
#336=CYLINDRICAL_SURFACE('',#403,3.);
#337=CYLINDRICAL_SURFACE('',#406,3.);
#338=ADVANCED_FACE('',(#31),#330,.F.);
#339=ADVANCED_FACE('',(#32),#331,.F.);
#340=ADVANCED_FACE('',(#33),#27,.F.);
#341=ADVANCED_FACE('',(#34),#332,.F.);
#342=ADVANCED_FACE('',(#35),#28,.F.);
#343=ADVANCED_FACE('',(#36),#333,.F.);
#344=ADVANCED_FACE('',(#37),#29,.F.);
#345=ADVANCED_FACE('',(#38),#30,.F.);
#346=ADVANCED_FACE('',(#39),#334,.F.);
#347=ADVANCED_FACE('',(#40),#16,.F.);
#348=ADVANCED_FACE('',(#41),#335,.F.);
#349=ADVANCED_FACE('',(#42),#17,.F.);
#350=ADVANCED_FACE('',(#43),#18,.T.);
#351=ADVANCED_FACE('',(#44),#19,.F.);
#352=ADVANCED_FACE('',(#45),#336,.F.);
#353=ADVANCED_FACE('',(#46),#20,.F.);
#354=ADVANCED_FACE('',(#47),#337,.F.);
#355=ADVANCED_FACE('',(#48),#21,.T.);
#356=ADVANCED_FACE('',(#49),#22,.T.);
#357=ADVANCED_FACE('',(#50),#23,.T.);
#358=ADVANCED_FACE('',(#51),#24,.T.);
#359=ADVANCED_FACE('',(#52,#15),#25,.T.);
#360=ADVANCED_FACE('',(#53),#26,.F.);
#361=CLOSED_SHELL('',(#338,#339,#340,#341,#342,#343,#344,#345,#346,#347,
#348,#349,#350,#351,#352,#353,#354,#355,#356,#357,#358,#359,#360));
#362=DERIVED_UNIT_ELEMENT(#364,1.);
#363=DERIVED_UNIT_ELEMENT(#631,3.);
#364=(
MASS_UNIT()
NAMED_UNIT(*)
SI_UNIT($,.GRAM.)
);
#365=DERIVED_UNIT((#362,#363));
#366=MEASURE_REPRESENTATION_ITEM('density measure',
POSITIVE_RATIO_MEASURE(1.),#365);
#367=PROPERTY_DEFINITION_REPRESENTATION(#372,#369);
#368=PROPERTY_DEFINITION_REPRESENTATION(#373,#370);
#369=REPRESENTATION('material name',(#371),#628);
#370=REPRESENTATION('density',(#366),#628);
#371=DESCRIPTIVE_REPRESENTATION_ITEM('Generic','Generic');
#372=PROPERTY_DEFINITION('material property','material name',#638);
#373=PROPERTY_DEFINITION('material property','density of part',#638);
#374=AXIS2_PLACEMENT_3D('placement',#526,#414,#415);
#375=AXIS2_PLACEMENT_3D('',#527,#416,#417);
#376=AXIS2_PLACEMENT_3D('',#530,#418,#419);
#377=AXIS2_PLACEMENT_3D('',#534,#421,#422);
#378=AXIS2_PLACEMENT_3D('',#536,#424,#425);
#379=AXIS2_PLACEMENT_3D('',#538,#426,#427);
#380=AXIS2_PLACEMENT_3D('',#542,#429,#430);
#381=AXIS2_PLACEMENT_3D('',#544,#432,#433);
#382=AXIS2_PLACEMENT_3D('',#545,#434,#435);
#383=AXIS2_PLACEMENT_3D('',#546,#436,#437);
#384=AXIS2_PLACEMENT_3D('',#548,#438,#439);
#385=AXIS2_PLACEMENT_3D('',#552,#441,#442);
#386=AXIS2_PLACEMENT_3D('',#554,#444,#445);
#387=AXIS2_PLACEMENT_3D('',#555,#446,#447);
#388=AXIS2_PLACEMENT_3D('',#556,#448,#449);
#389=AXIS2_PLACEMENT_3D('',#558,#450,#451);
#390=AXIS2_PLACEMENT_3D('',#561,#453,#454);
#391=AXIS2_PLACEMENT_3D('',#563,#456,#457);
#392=AXIS2_PLACEMENT_3D('',#564,#458,#459);
#393=AXIS2_PLACEMENT_3D('',#565,#460,#461);
#394=AXIS2_PLACEMENT_3D('',#566,#462,#463);
#395=AXIS2_PLACEMENT_3D('',#567,#464,#465);
#396=AXIS2_PLACEMENT_3D('',#571,#467,#468);
#397=AXIS2_PLACEMENT_3D('',#573,#470,#471);
#398=AXIS2_PLACEMENT_3D('',#577,#474,#475);
#399=AXIS2_PLACEMENT_3D('',#580,#477,#478);
#400=AXIS2_PLACEMENT_3D('',#581,#479,#480);
#401=AXIS2_PLACEMENT_3D('',#585,#483,#484);
#402=AXIS2_PLACEMENT_3D('',#586,#485,#486);
#403=AXIS2_PLACEMENT_3D('',#590,#489,#490);
#404=AXIS2_PLACEMENT_3D('',#592,#491,#492);
#405=AXIS2_PLACEMENT_3D('',#594,#494,#495);
#406=AXIS2_PLACEMENT_3D('',#598,#498,#499);
#407=AXIS2_PLACEMENT_3D('',#599,#500,#501);
#408=AXIS2_PLACEMENT_3D('',#600,#502,#503);
#409=AXIS2_PLACEMENT_3D('',#609,#508,#509);
#410=AXIS2_PLACEMENT_3D('',#615,#513,#514);
#411=AXIS2_PLACEMENT_3D('',#621,#518,#519);
#412=AXIS2_PLACEMENT_3D('',#624,#522,#523);
#413=AXIS2_PLACEMENT_3D('',#625,#524,#525);
#414=DIRECTION('axis',(0.,0.,1.));
#415=DIRECTION('refdir',(1.,0.,0.));
#416=DIRECTION('center_axis',(-3.00060276925718E-16,1.,2.22044604925031E-16));
#417=DIRECTION('ref_axis',(-0.707106781186548,1.57009245868377E-16,-0.707106781186547));
#418=DIRECTION('center_axis',(-4.62592926927148E-17,-1.,-2.22044604925031E-16));
#419=DIRECTION('ref_axis',(-1.,4.62592926927148E-17,1.02716263700652E-32));
#420=DIRECTION('',(-3.00060276925718E-16,1.,2.22044604925031E-16));
#421=DIRECTION('center_axis',(0.,1.,2.22044604925031E-16));
#422=DIRECTION('ref_axis',(0.,2.22044604925031E-16,-1.));
#423=DIRECTION('',(3.00060276925718E-16,-1.,-2.22044604925031E-16));
#424=DIRECTION('center_axis',(1.,0.,0.));
#425=DIRECTION('ref_axis',(0.,0.707106781186549,-0.707106781186546));
#426=DIRECTION('center_axis',(-1.,0.,0.));
#427=DIRECTION('ref_axis',(0.,1.,2.22044604925031E-16));
#428=DIRECTION('',(1.,0.,0.));
#429=DIRECTION('center_axis',(1.,-1.48029736616688E-15,-3.28692043842088E-31));
#430=DIRECTION('ref_axis',(0.,2.22044604925031E-16,-1.));
#431=DIRECTION('',(-1.,0.,0.));
#432=DIRECTION('center_axis',(0.408248290463863,-0.408248290463862,-0.816496580927726));
#433=DIRECTION('ref_axis',(-0.577350269189626,0.577350269189625,-0.577350269189626));
#434=DIRECTION('center_axis',(0.,-2.22044604925031E-16,1.));
#435=DIRECTION('ref_axis',(0.,1.,2.22044604925031E-16));
#436=DIRECTION('center_axis',(1.80036166155431E-16,-1.,-2.22044604925031E-16));
#437=DIRECTION('ref_axis',(0.707106781186547,1.57009245868377E-16,-0.707106781186547));
#438=DIRECTION('center_axis',(0.,1.,2.22044604925031E-16));
#439=DIRECTION('ref_axis',(1.,0.,0.));
#440=DIRECTION('',(1.80036166155431E-16,-1.,-2.22044604925031E-16));
#441=DIRECTION('center_axis',(3.00685402502646E-16,-1.,-2.22044604925031E-16));
#442=DIRECTION('ref_axis',(0.,2.22044604925031E-16,-1.));
#443=DIRECTION('',(-1.80036166155431E-16,1.,2.22044604925031E-16));
#444=DIRECTION('center_axis',(-0.408248290463863,-0.408248290463864,-0.816496580927726));
#445=DIRECTION('ref_axis',(0.577350269189625,0.577350269189627,-0.577350269189626));
#446=DIRECTION('center_axis',(0.,-2.22044604925031E-16,1.));
#447=DIRECTION('ref_axis',(1.,0.,0.));
#448=DIRECTION('center_axis',(-1.,1.26161707343768E-17,2.80135264638143E-33));
#449=DIRECTION('ref_axis',(0.,-0.707106781186547,-0.707106781186547));
#450=DIRECTION('center_axis',(1.,0.,0.));
#451=DIRECTION('ref_axis',(0.,-1.,-2.22044604925031E-16));
#452=DIRECTION('',(-1.,1.26161707343768E-17,2.80135264638143E-33));
#453=DIRECTION('center_axis',(-1.,7.40148683083438E-16,1.64346021921044E-31));
#454=DIRECTION('ref_axis',(0.,2.22044604925031E-16,-1.));
#455=DIRECTION('',(1.,-1.26161707343768E-17,-2.80135264638143E-33));
#456=DIRECTION('center_axis',(-0.408248290463863,0.408248290463864,-0.816496580927726));
#457=DIRECTION('ref_axis',(0.577350269189625,-0.577350269189626,-0.577350269189626));
#458=DIRECTION('center_axis',(0.,-2.22044604925031E-16,1.));
#459=DIRECTION('ref_axis',(0.,-1.,-2.22044604925031E-16));
#460=DIRECTION('center_axis',(0.408248290463863,0.408248290463863,-0.816496580927726));
#461=DIRECTION('ref_axis',(-0.577350269189626,-0.577350269189626,-0.577350269189625));
#462=DIRECTION('center_axis',(0.,-2.22044604925031E-16,1.));
#463=DIRECTION('ref_axis',(-1.,-3.00685402502647E-16,-6.67655714054241E-32));
#464=DIRECTION('center_axis',(0.,2.22044604925031E-16,-1.));
#465=DIRECTION('ref_axis',(1.,0.,0.));
#466=DIRECTION('',(0.,2.22044604925031E-16,-1.));
#467=DIRECTION('center_axis',(0.,2.22044604925031E-16,-1.));
#468=DIRECTION('ref_axis',(1.,0.,0.));
#469=DIRECTION('',(0.,2.22044604925031E-16,-1.));
#470=DIRECTION('center_axis',(1.,1.80036166155431E-16,3.99760593861999E-32));
#471=DIRECTION('ref_axis',(1.80036166155431E-16,-1.,-2.22044604925031E-16));
#472=DIRECTION('',(0.,2.22044604925031E-16,-1.));
#473=DIRECTION('',(1.80036166155431E-16,-1.,-2.22044604925031E-16));
#474=DIRECTION('center_axis',(0.,2.22044604925031E-16,-1.));
#475=DIRECTION('ref_axis',(0.,-1.,-2.22044604925031E-16));
#476=DIRECTION('',(0.,2.22044604925031E-16,-1.));
#477=DIRECTION('center_axis',(0.,2.22044604925031E-16,-1.));
#478=DIRECTION('ref_axis',(0.,-1.,-2.22044604925031E-16));
#479=DIRECTION('center_axis',(-1.26161707343768E-17,-1.,-2.22044604925031E-16));
#480=DIRECTION('ref_axis',(-1.,1.26161707343768E-17,2.80135264638143E-33));
#481=DIRECTION('',(0.,2.22044604925031E-16,-1.));
#482=DIRECTION('',(-1.,1.26161707343768E-17,2.80135264638143E-33));
#483=DIRECTION('center_axis',(0.,-2.22044604925031E-16,1.));
#484=DIRECTION('ref_axis',(0.,-1.,-2.22044604925031E-16));
#485=DIRECTION('center_axis',(0.,1.,2.22044604925031E-16));
#486=DIRECTION('ref_axis',(1.,0.,0.));
#487=DIRECTION('',(1.,0.,0.));
#488=DIRECTION('',(0.,2.22044604925031E-16,-1.));
#489=DIRECTION('center_axis',(0.,2.22044604925031E-16,-1.));
#490=DIRECTION('ref_axis',(0.,1.,2.22044604925031E-16));
#491=DIRECTION('center_axis',(0.,2.22044604925031E-16,-1.));
#492=DIRECTION('ref_axis',(0.,1.,2.22044604925031E-16));
#493=DIRECTION('',(0.,2.22044604925031E-16,-1.));
#494=DIRECTION('center_axis',(-1.,-3.00060276925718E-16,-6.66267656436665E-32));
#495=DIRECTION('ref_axis',(-3.00060276925718E-16,1.,2.22044604925031E-16));
#496=DIRECTION('',(-3.00060276925718E-16,1.,2.22044604925031E-16));
#497=DIRECTION('',(0.,2.22044604925031E-16,-1.));
#498=DIRECTION('center_axis',(0.,2.22044604925031E-16,-1.));
#499=DIRECTION('ref_axis',(-1.,-3.00685402502647E-16,-6.67655714054241E-32));
#500=DIRECTION('center_axis',(0.,2.22044604925031E-16,-1.));
#501=DIRECTION('ref_axis',(-1.,-3.00685402502647E-16,-6.67655714054241E-32));
#502=DIRECTION('center_axis',(2.368475785867E-16,-1.,-2.22044604925031E-16));
#503=DIRECTION('ref_axis',(1.,2.368475785867E-16,5.25907270147341E-32));
#504=DIRECTION('',(1.,2.368475785867E-16,5.25907270147341E-32));
#505=DIRECTION('',(0.,-2.22044604925031E-16,1.));
#506=DIRECTION('',(1.,2.368475785867E-16,5.25907270147341E-32));
#507=DIRECTION('',(0.,-2.22044604925031E-16,1.));
#508=DIRECTION('center_axis',(-1.,0.,0.));
#509=DIRECTION('ref_axis',(0.,-1.,-2.22044604925031E-16));
#510=DIRECTION('',(0.,-1.,-2.22044604925031E-16));
#511=DIRECTION('',(0.,-1.,-2.22044604925031E-16));
#512=DIRECTION('',(0.,-2.22044604925031E-16,1.));
#513=DIRECTION('center_axis',(-2.368475785867E-16,1.,2.22044604925031E-16));
#514=DIRECTION('ref_axis',(-1.,-2.368475785867E-16,-5.25907270147341E-32));
#515=DIRECTION('',(-1.,-2.368475785867E-16,-5.25907270147341E-32));
#516=DIRECTION('',(-1.,-2.368475785867E-16,-5.25907270147341E-32));
#517=DIRECTION('',(0.,-2.22044604925031E-16,1.));
#518=DIRECTION('center_axis',(1.,2.66453525910038E-16,5.91645678915759E-32));
#519=DIRECTION('ref_axis',(-2.66453525910038E-16,1.,2.22044604925031E-16));
#520=DIRECTION('',(-2.66453525910038E-16,1.,2.22044604925031E-16));
#521=DIRECTION('',(-2.66453525910038E-16,1.,2.22044604925031E-16));
#522=DIRECTION('center_axis',(0.,-2.22044604925031E-16,1.));
#523=DIRECTION('ref_axis',(0.,-1.,-2.22044604925031E-16));
#524=DIRECTION('center_axis',(0.,-2.22044604925031E-16,1.));
#525=DIRECTION('ref_axis',(0.,-1.,-2.22044604925031E-16));
#526=CARTESIAN_POINT('',(0.,0.,0.));
#527=CARTESIAN_POINT('Origin',(-15.2307755809731,5.07363089261343,10.0014771048744));
#528=CARTESIAN_POINT('',(-18.2307755809731,-13.4263691073866,10.0014771048744));
#529=CARTESIAN_POINT('',(-15.2307755809731,-13.4263691073866,7.00147710487442));
#530=CARTESIAN_POINT('Origin',(-15.2307755809731,-13.4263691073866,10.0014771048744));
#531=CARTESIAN_POINT('',(-15.2307755809731,60.5736308926134,7.00147710487444));
#532=CARTESIAN_POINT('',(-15.2307755809731,5.07363089261343,7.00147710487443));
#533=CARTESIAN_POINT('',(-18.2307755809731,60.5736308926134,10.0014771048744));
#534=CARTESIAN_POINT('Origin',(-15.2307755809731,60.5736308926134,10.0014771048744));
#535=CARTESIAN_POINT('',(-18.2307755809731,5.07363089261343,10.0014771048744));
#536=CARTESIAN_POINT('Origin',(-4.23077558097309,60.5736308926134,10.0014771048744));
#537=CARTESIAN_POINT('',(-15.2307755809731,63.5736308926134,10.0014771048744));
#538=CARTESIAN_POINT('Origin',(-15.2307755809731,60.5736308926134,10.0014771048744));
#539=CARTESIAN_POINT('',(28.7692244190269,60.5736308926134,7.00147710487444));
#540=CARTESIAN_POINT('',(-4.23077558097309,60.5736308926134,7.00147710487444));
#541=CARTESIAN_POINT('',(28.7692244190269,63.5736308926134,10.0014771048744));
#542=CARTESIAN_POINT('Origin',(28.7692244190269,60.5736308926134,10.0014771048744));
#543=CARTESIAN_POINT('',(-4.23077558097309,63.5736308926134,10.0014771048744));
#544=CARTESIAN_POINT('Origin',(-15.2307755809731,60.5736308926134,10.0014771048744));
#545=CARTESIAN_POINT('Origin',(-15.2307755809731,60.5736308926134,10.0014771048744));
#546=CARTESIAN_POINT('Origin',(28.7692244190269,42.0736308926134,10.0014771048744));
#547=CARTESIAN_POINT('',(31.7692244190269,60.5736308926134,10.0014771048744));
#548=CARTESIAN_POINT('Origin',(28.7692244190269,60.5736308926134,10.0014771048744));
#549=CARTESIAN_POINT('',(28.7692244190269,-13.4263691073866,7.00147710487442));
#550=CARTESIAN_POINT('',(28.7692244190269,42.0736308926134,7.00147710487444));
#551=CARTESIAN_POINT('',(31.7692244190269,-13.4263691073866,10.0014771048744));
#552=CARTESIAN_POINT('Origin',(28.7692244190269,-13.4263691073866,10.0014771048744));
#553=CARTESIAN_POINT('',(31.7692244190269,42.0736308926134,10.0014771048744));
#554=CARTESIAN_POINT('Origin',(28.7692244190269,60.5736308926134,10.0014771048744));
#555=CARTESIAN_POINT('Origin',(28.7692244190269,60.5736308926134,10.0014771048744));
#556=CARTESIAN_POINT('Origin',(17.7692244190269,-13.4263691073866,10.0014771048744));
#557=CARTESIAN_POINT('',(28.7692244190269,-16.4263691073866,10.0014771048744));
#558=CARTESIAN_POINT('Origin',(28.7692244190269,-13.4263691073866,10.0014771048744));
#559=CARTESIAN_POINT('',(17.7692244190269,-13.4263691073866,7.00147710487442));
#560=CARTESIAN_POINT('',(-15.2307755809731,-16.4263691073866,10.0014771048744));
#561=CARTESIAN_POINT('Origin',(-15.2307755809731,-13.4263691073866,10.0014771048744));
#562=CARTESIAN_POINT('',(17.7692244190269,-16.4263691073866,10.0014771048744));
#563=CARTESIAN_POINT('Origin',(28.7692244190269,-13.4263691073866,10.0014771048744));
#564=CARTESIAN_POINT('Origin',(28.7692244190269,-13.4263691073866,10.0014771048744));
#565=CARTESIAN_POINT('Origin',(-15.2307755809731,-13.4263691073866,10.0014771048744));
#566=CARTESIAN_POINT('Origin',(-15.2307755809731,-13.4263691073866,10.0014771048744));
#567=CARTESIAN_POINT('Origin',(28.7692244190269,60.5736308926134,22.0014771048744));
#568=CARTESIAN_POINT('',(31.7692244190269,60.5736308926134,22.0014771048744));
#569=CARTESIAN_POINT('',(31.7692244190269,60.5736308926134,22.0014771048744));
#570=CARTESIAN_POINT('',(28.7692244190269,63.5736308926134,22.0014771048744));
#571=CARTESIAN_POINT('Origin',(28.7692244190269,60.5736308926134,22.0014771048744));
#572=CARTESIAN_POINT('',(28.7692244190269,63.5736308926134,22.0014771048744));
#573=CARTESIAN_POINT('Origin',(31.7692244190269,60.5736308926134,22.0014771048744));
#574=CARTESIAN_POINT('',(31.7692244190269,-13.4263691073866,22.0014771048744));
#575=CARTESIAN_POINT('',(31.7692244190269,-13.4263691073866,22.0014771048744));
#576=CARTESIAN_POINT('',(31.7692244190269,30.2868154463067,22.0014771048744));
#577=CARTESIAN_POINT('Origin',(28.7692244190269,-13.4263691073866,22.0014771048744));
#578=CARTESIAN_POINT('',(28.7692244190269,-16.4263691073866,22.0014771048744));
#579=CARTESIAN_POINT('',(28.7692244190269,-16.4263691073866,22.0014771048744));
#580=CARTESIAN_POINT('Origin',(28.7692244190269,-13.4263691073866,22.0014771048744));
#581=CARTESIAN_POINT('Origin',(28.7692244190269,-16.4263691073866,22.0014771048744));
#582=CARTESIAN_POINT('',(-15.2307755809731,-16.4263691073866,22.0014771048744));
#583=CARTESIAN_POINT('',(-15.2307755809731,-16.4263691073866,22.0014771048744));
#584=CARTESIAN_POINT('',(20.7176986241096,-16.4263691073866,22.0014771048744));
#585=CARTESIAN_POINT('Origin',(6.76922441902692,23.5736308926134,7.00147710487443));
#586=CARTESIAN_POINT('Origin',(-15.2307755809731,63.5736308926134,22.0014771048744));
#587=CARTESIAN_POINT('',(-15.2307755809731,63.5736308926134,22.0014771048744));
#588=CARTESIAN_POINT('',(-1.28230137589045,63.5736308926134,22.0014771048744));
#589=CARTESIAN_POINT('',(-15.2307755809731,63.5736308926134,22.0014771048744));
#590=CARTESIAN_POINT('Origin',(-15.2307755809731,60.5736308926134,22.0014771048744));
#591=CARTESIAN_POINT('',(-18.2307755809731,60.5736308926134,22.0014771048744));
#592=CARTESIAN_POINT('Origin',(-15.2307755809731,60.5736308926134,22.0014771048744));
#593=CARTESIAN_POINT('',(-18.2307755809731,60.5736308926134,22.0014771048744));
#594=CARTESIAN_POINT('Origin',(-18.2307755809731,-13.4263691073866,22.0014771048744));
#595=CARTESIAN_POINT('',(-18.2307755809731,-13.4263691073866,22.0014771048744));
#596=CARTESIAN_POINT('',(-18.2307755809731,-6.7131845536933,22.0014771048744));
#597=CARTESIAN_POINT('',(-18.2307755809731,-13.4263691073866,22.0014771048744));
#598=CARTESIAN_POINT('Origin',(-15.2307755809731,-13.4263691073866,22.0014771048744));
#599=CARTESIAN_POINT('Origin',(-15.2307755809731,-13.4263691073866,22.0014771048744));
#600=CARTESIAN_POINT('Origin',(-62.3338271708079,-100.,-12.9985228951256));
#601=CARTESIAN_POINT('',(-62.3338271708079,-100.,-12.9985228951256));
#602=CARTESIAN_POINT('',(87.6661728291922,-100.,-12.9985228951256));
#603=CARTESIAN_POINT('',(-62.3338271708079,-100.,-12.9985228951256));
#604=CARTESIAN_POINT('',(87.6661728291922,-100.,22.0014771048744));
#605=CARTESIAN_POINT('',(87.6661728291922,-100.,-12.9985228951256));
#606=CARTESIAN_POINT('',(-62.3338271708079,-100.,22.0014771048744));
#607=CARTESIAN_POINT('',(-62.3338271708079,-100.,22.0014771048744));
#608=CARTESIAN_POINT('',(-62.3338271708079,-100.,-12.9985228951256));
#609=CARTESIAN_POINT('Origin',(-62.3338271708079,100.,-12.9985228951256));
#610=CARTESIAN_POINT('',(-62.3338271708079,100.,-12.9985228951256));
#611=CARTESIAN_POINT('',(-62.3338271708079,100.,-12.9985228951256));
#612=CARTESIAN_POINT('',(-62.3338271708079,100.,22.0014771048745));
#613=CARTESIAN_POINT('',(-62.3338271708079,100.,22.0014771048745));
#614=CARTESIAN_POINT('',(-62.3338271708079,100.,-12.9985228951256));
#615=CARTESIAN_POINT('Origin',(87.6661728291922,100.,-12.9985228951256));
#616=CARTESIAN_POINT('',(87.6661728291922,100.,-12.9985228951256));
#617=CARTESIAN_POINT('',(87.6661728291922,100.,-12.9985228951256));
#618=CARTESIAN_POINT('',(87.6661728291922,100.,22.0014771048745));
#619=CARTESIAN_POINT('',(87.6661728291922,100.,22.0014771048745));
#620=CARTESIAN_POINT('',(87.6661728291922,100.,-12.9985228951256));
#621=CARTESIAN_POINT('Origin',(87.6661728291922,-100.,-12.9985228951256));
#622=CARTESIAN_POINT('',(87.6661728291922,-100.,-12.9985228951256));
#623=CARTESIAN_POINT('',(87.6661728291922,-100.,22.0014771048744));
#624=CARTESIAN_POINT('Origin',(12.6661728291922,-8.88178419700125E-15,22.0014771048744));
#625=CARTESIAN_POINT('Origin',(12.6661728291922,-2.22044604925031E-15,-12.9985228951256));
#626=UNCERTAINTY_MEASURE_WITH_UNIT(LENGTH_MEASURE(0.01),#630,
'DISTANCE_ACCURACY_VALUE',
'Maximum model space distance between geometric entities at asserted c
onnectivities');
#627=UNCERTAINTY_MEASURE_WITH_UNIT(LENGTH_MEASURE(0.01),#630,
'DISTANCE_ACCURACY_VALUE',
'Maximum model space distance between geometric entities at asserted c
onnectivities');
#628=(
GEOMETRIC_REPRESENTATION_CONTEXT(3)
GLOBAL_UNCERTAINTY_ASSIGNED_CONTEXT((#626))
GLOBAL_UNIT_ASSIGNED_CONTEXT((#630,#632,#633))
REPRESENTATION_CONTEXT('','3D')
);
#629=(
GEOMETRIC_REPRESENTATION_CONTEXT(3)
GLOBAL_UNCERTAINTY_ASSIGNED_CONTEXT((#627))
GLOBAL_UNIT_ASSIGNED_CONTEXT((#630,#632,#633))
REPRESENTATION_CONTEXT('','3D')
);
#630=(
LENGTH_UNIT()
NAMED_UNIT(*)
SI_UNIT(.MILLI.,.METRE.)
);
#631=(
LENGTH_UNIT()
NAMED_UNIT(*)
SI_UNIT(.CENTI.,.METRE.)
);
#632=(
NAMED_UNIT(*)
PLANE_ANGLE_UNIT()
SI_UNIT($,.RADIAN.)
);
#633=(
NAMED_UNIT(*)
SI_UNIT($,.STERADIAN.)
SOLID_ANGLE_UNIT()
);
#634=SHAPE_DEFINITION_REPRESENTATION(#635,#636);
#635=PRODUCT_DEFINITION_SHAPE('',$,#638);
#636=SHAPE_REPRESENTATION('',(#374),#628);
#637=PRODUCT_DEFINITION_CONTEXT('part definition',#642,'design');
#638=PRODUCT_DEFINITION('Pocket_v01',
'1.4_CLOSED POCKET_planar floor, internal fillets, floor fillets_v01',#639,
#637);
#639=PRODUCT_DEFINITION_FORMATION('',$,#644);
#640=PRODUCT_RELATED_PRODUCT_CATEGORY(
'1.4_CLOSED POCKET_planar floor, internal fillets, floor fillets_v01',
'1.4_CLOSED POCKET_planar floor, internal fillets, floor fillets_v01',(#644));
#641=APPLICATION_PROTOCOL_DEFINITION('international standard',
'automotive_design',2009,#642);
#642=APPLICATION_CONTEXT(
'Core Data for Automotive Mechanical Design Process');
#643=PRODUCT_CONTEXT('part definition',#642,'mechanical');
#644=PRODUCT('Pocket_v01',
'1.4_CLOSED POCKET_planar floor, internal fillets, floor fillets_v01',$,
(#643));
#645=PRESENTATION_STYLE_ASSIGNMENT((#646));
#646=SURFACE_STYLE_USAGE(.BOTH.,#649);
#647=SURFACE_STYLE_RENDERING_WITH_PROPERTIES($,#653,(#648));
#648=SURFACE_STYLE_TRANSPARENT(0.);
#649=SURFACE_SIDE_STYLE('',(#650,#647));
#650=SURFACE_STYLE_FILL_AREA(#651);
#651=FILL_AREA_STYLE('',(#652));
#652=FILL_AREA_STYLE_COLOUR('',#653);
#653=COLOUR_RGB('',0.749019607843137,0.749019607843137,0.749019607843137);
ENDSEC;
END-ISO-10303-21;
