ISO-10303-21;
HEADER;
/* Generated by software containing ST-Developer
 * from STEP Tools, Inc. (www.steptools.com) 
 */

FILE_DESCRIPTION(
/* description */ (''),
/* implementation_level */ '2;1');

FILE_NAME(
/* name */ 
'C:\\Users\\pschwitalla\\OneDrive - igus GmbH\\Documents\\190520_Platt
form Tribocut\\01_Instant Quoting\\L\X\D6SUNGEN\\Oroox\\03_CNC calcula
tion\\40_Calculations\\Pockets\\3.4_NON-PLANAR WALLS Pocket_v01.stp',
/* time_stamp */ '2022-03-28T19:35:19+02:00',
/* author */ ('pschwitalla'),
/* organization */ ('igus GmbH'),
/* preprocessor_version */ 'ST-DEVELOPER v18.1',
/* originating_system */ 'Autodesk Inventor 2020',
/* authorisation */ '');

FILE_SCHEMA (('AUTOMOTIVE_DESIGN { 1 0 10303 214 3 1 1 }'));
ENDSEC;

DATA;
#10=MECHANICAL_DESIGN_GEOMETRIC_PRESENTATION_REPRESENTATION('',(#13),#251);
#11=SHAPE_REPRESENTATION_RELATIONSHIP('SRR','None',#258,#12);
#12=ADVANCED_BREP_SHAPE_REPRESENTATION('',(#14),#250);
#13=STYLED_ITEM('',(#267),#14);
#14=MANIFOLD_SOLID_BREP('Solid1',#147);
#15=PLANE('',#164);
#16=PLANE('',#165);
#17=PLANE('',#166);
#18=PLANE('',#167);
#19=PLANE('',#168);
#20=PLANE('',#169);
#21=PLANE('',#170);
#22=FACE_OUTER_BOUND('',#30,.T.);
#23=FACE_OUTER_BOUND('',#31,.T.);
#24=FACE_OUTER_BOUND('',#32,.T.);
#25=FACE_OUTER_BOUND('',#33,.T.);
#26=FACE_OUTER_BOUND('',#34,.T.);
#27=FACE_OUTER_BOUND('',#35,.T.);
#28=FACE_OUTER_BOUND('',#36,.T.);
#29=FACE_OUTER_BOUND('',#37,.T.);
#30=EDGE_LOOP('',(#102,#103,#104,#105));
#31=EDGE_LOOP('',(#106,#107,#108,#109));
#32=EDGE_LOOP('',(#110,#111,#112,#113));
#33=EDGE_LOOP('',(#114,#115,#116,#117,#118,#119));
#34=EDGE_LOOP('',(#120,#121,#122,#123));
#35=EDGE_LOOP('',(#124,#125,#126,#127,#128,#129));
#36=EDGE_LOOP('',(#130,#131,#132,#133));
#37=EDGE_LOOP('',(#134,#135,#136,#137));
#38=CIRCLE('',#162,27.9112903225806);
#39=CIRCLE('',#163,27.9112903225806);
#40=LINE('',#213,#56);
#41=LINE('',#217,#57);
#42=LINE('',#221,#58);
#43=LINE('',#223,#59);
#44=LINE('',#224,#60);
#45=LINE('',#227,#61);
#46=LINE('',#229,#62);
#47=LINE('',#230,#63);
#48=LINE('',#233,#64);
#49=LINE('',#235,#65);
#50=LINE('',#236,#66);
#51=LINE('',#239,#67);
#52=LINE('',#240,#68);
#53=LINE('',#243,#69);
#54=LINE('',#244,#70);
#55=LINE('',#246,#71);
#56=VECTOR('',#175,10.);
#57=VECTOR('',#178,10.);
#58=VECTOR('',#183,10.);
#59=VECTOR('',#184,10.);
#60=VECTOR('',#185,10.);
#61=VECTOR('',#188,10.);
#62=VECTOR('',#189,10.);
#63=VECTOR('',#190,10.);
#64=VECTOR('',#193,10.);
#65=VECTOR('',#194,10.);
#66=VECTOR('',#195,10.);
#67=VECTOR('',#198,10.);
#68=VECTOR('',#199,10.);
#69=VECTOR('',#202,10.);
#70=VECTOR('',#203,10.);
#71=VECTOR('',#206,10.);
#72=VERTEX_POINT('',#211);
#73=VERTEX_POINT('',#212);
#74=VERTEX_POINT('',#214);
#75=VERTEX_POINT('',#216);
#76=VERTEX_POINT('',#220);
#77=VERTEX_POINT('',#222);
#78=VERTEX_POINT('',#226);
#79=VERTEX_POINT('',#228);
#80=VERTEX_POINT('',#232);
#81=VERTEX_POINT('',#234);
#82=VERTEX_POINT('',#238);
#83=VERTEX_POINT('',#242);
#84=EDGE_CURVE('',#72,#73,#40,.T.);
#85=EDGE_CURVE('',#74,#72,#38,.T.);
#86=EDGE_CURVE('',#75,#74,#41,.T.);
#87=EDGE_CURVE('',#73,#75,#39,.T.);
#88=EDGE_CURVE('',#76,#74,#42,.T.);
#89=EDGE_CURVE('',#77,#76,#43,.T.);
#90=EDGE_CURVE('',#75,#77,#44,.T.);
#91=EDGE_CURVE('',#73,#78,#45,.T.);
#92=EDGE_CURVE('',#78,#79,#46,.T.);
#93=EDGE_CURVE('',#79,#72,#47,.T.);
#94=EDGE_CURVE('',#80,#77,#48,.T.);
#95=EDGE_CURVE('',#80,#81,#49,.T.);
#96=EDGE_CURVE('',#81,#78,#50,.T.);
#97=EDGE_CURVE('',#82,#76,#51,.T.);
#98=EDGE_CURVE('',#82,#80,#52,.T.);
#99=EDGE_CURVE('',#83,#79,#53,.T.);
#100=EDGE_CURVE('',#83,#82,#54,.T.);
#101=EDGE_CURVE('',#81,#83,#55,.T.);
#102=ORIENTED_EDGE('',*,*,#84,.F.);
#103=ORIENTED_EDGE('',*,*,#85,.F.);
#104=ORIENTED_EDGE('',*,*,#86,.F.);
#105=ORIENTED_EDGE('',*,*,#87,.F.);
#106=ORIENTED_EDGE('',*,*,#88,.F.);
#107=ORIENTED_EDGE('',*,*,#89,.F.);
#108=ORIENTED_EDGE('',*,*,#90,.F.);
#109=ORIENTED_EDGE('',*,*,#86,.T.);
#110=ORIENTED_EDGE('',*,*,#84,.T.);
#111=ORIENTED_EDGE('',*,*,#91,.T.);
#112=ORIENTED_EDGE('',*,*,#92,.T.);
#113=ORIENTED_EDGE('',*,*,#93,.T.);
#114=ORIENTED_EDGE('',*,*,#87,.T.);
#115=ORIENTED_EDGE('',*,*,#90,.T.);
#116=ORIENTED_EDGE('',*,*,#94,.F.);
#117=ORIENTED_EDGE('',*,*,#95,.T.);
#118=ORIENTED_EDGE('',*,*,#96,.T.);
#119=ORIENTED_EDGE('',*,*,#91,.F.);
#120=ORIENTED_EDGE('',*,*,#89,.T.);
#121=ORIENTED_EDGE('',*,*,#97,.F.);
#122=ORIENTED_EDGE('',*,*,#98,.T.);
#123=ORIENTED_EDGE('',*,*,#94,.T.);
#124=ORIENTED_EDGE('',*,*,#85,.T.);
#125=ORIENTED_EDGE('',*,*,#93,.F.);
#126=ORIENTED_EDGE('',*,*,#99,.F.);
#127=ORIENTED_EDGE('',*,*,#100,.T.);
#128=ORIENTED_EDGE('',*,*,#97,.T.);
#129=ORIENTED_EDGE('',*,*,#88,.T.);
#130=ORIENTED_EDGE('',*,*,#101,.T.);
#131=ORIENTED_EDGE('',*,*,#99,.T.);
#132=ORIENTED_EDGE('',*,*,#92,.F.);
#133=ORIENTED_EDGE('',*,*,#96,.F.);
#134=ORIENTED_EDGE('',*,*,#95,.F.);
#135=ORIENTED_EDGE('',*,*,#98,.F.);
#136=ORIENTED_EDGE('',*,*,#100,.F.);
#137=ORIENTED_EDGE('',*,*,#101,.F.);
#138=CYLINDRICAL_SURFACE('',#161,27.9112903225806);
#139=ADVANCED_FACE('',(#22),#138,.F.);
#140=ADVANCED_FACE('',(#23),#15,.F.);
#141=ADVANCED_FACE('',(#24),#16,.T.);
#142=ADVANCED_FACE('',(#25),#17,.T.);
#143=ADVANCED_FACE('',(#26),#18,.T.);
#144=ADVANCED_FACE('',(#27),#19,.T.);
#145=ADVANCED_FACE('',(#28),#20,.T.);
#146=ADVANCED_FACE('',(#29),#21,.F.);
#147=CLOSED_SHELL('',(#139,#140,#141,#142,#143,#144,#145,#146));
#148=DERIVED_UNIT_ELEMENT(#150,1.);
#149=DERIVED_UNIT_ELEMENT(#253,3.);
#150=(
MASS_UNIT()
NAMED_UNIT(*)
SI_UNIT($,.GRAM.)
);
#151=DERIVED_UNIT((#148,#149));
#152=MEASURE_REPRESENTATION_ITEM('density measure',
POSITIVE_RATIO_MEASURE(1.),#151);
#153=PROPERTY_DEFINITION_REPRESENTATION(#158,#155);
#154=PROPERTY_DEFINITION_REPRESENTATION(#159,#156);
#155=REPRESENTATION('material name',(#157),#250);
#156=REPRESENTATION('density',(#152),#250);
#157=DESCRIPTIVE_REPRESENTATION_ITEM('Generic','Generic');
#158=PROPERTY_DEFINITION('material property','material name',#260);
#159=PROPERTY_DEFINITION('material property','density of part',#260);
#160=AXIS2_PLACEMENT_3D('placement',#209,#171,#172);
#161=AXIS2_PLACEMENT_3D('',#210,#173,#174);
#162=AXIS2_PLACEMENT_3D('',#215,#176,#177);
#163=AXIS2_PLACEMENT_3D('',#218,#179,#180);
#164=AXIS2_PLACEMENT_3D('',#219,#181,#182);
#165=AXIS2_PLACEMENT_3D('',#225,#186,#187);
#166=AXIS2_PLACEMENT_3D('',#231,#191,#192);
#167=AXIS2_PLACEMENT_3D('',#237,#196,#197);
#168=AXIS2_PLACEMENT_3D('',#241,#200,#201);
#169=AXIS2_PLACEMENT_3D('',#245,#204,#205);
#170=AXIS2_PLACEMENT_3D('',#247,#207,#208);
#171=DIRECTION('axis',(0.,0.,1.));
#172=DIRECTION('refdir',(1.,0.,0.));
#173=DIRECTION('center_axis',(-1.,-2.368475785867E-16,0.));
#174=DIRECTION('ref_axis',(-1.05318816366637E-16,0.444669170759896,-0.895694885871135));
#175=DIRECTION('',(1.,2.368475785867E-16,0.));
#176=DIRECTION('center_axis',(1.,0.,0.));
#177=DIRECTION('ref_axis',(-1.05318816366637E-16,0.444669170759896,-0.895694885871135));
#178=DIRECTION('',(-1.,-2.368475785867E-16,0.));
#179=DIRECTION('center_axis',(-1.,-2.66453525910038E-16,-5.91645678915759E-32));
#180=DIRECTION('ref_axis',(-1.05318816366637E-16,0.444669170759896,-0.895694885871135));
#181=DIRECTION('center_axis',(-1.20449729614391E-31,5.08553772570233E-16,
-1.));
#182=DIRECTION('ref_axis',(2.66453525910038E-16,-1.,-5.08553772570233E-16));
#183=DIRECTION('',(0.,1.,5.08553772570233E-16));
#184=DIRECTION('',(-1.,-2.368475785867E-16,0.));
#185=DIRECTION('',(2.66453525910038E-16,-1.,-5.08553772570233E-16));
#186=DIRECTION('center_axis',(0.,-2.22044604925031E-16,1.));
#187=DIRECTION('ref_axis',(0.,-1.,-2.22044604925031E-16));
#188=DIRECTION('',(-2.66453525910038E-16,1.,2.22044604925031E-16));
#189=DIRECTION('',(-1.,-2.368475785867E-16,-5.25907270147341E-32));
#190=DIRECTION('',(0.,-1.,-2.22044604925031E-16));
#191=DIRECTION('center_axis',(1.,2.66453525910038E-16,5.91645678915759E-32));
#192=DIRECTION('ref_axis',(-2.66453525910038E-16,1.,2.22044604925031E-16));
#193=DIRECTION('',(0.,-2.22044604925031E-16,1.));
#194=DIRECTION('',(-2.66453525910038E-16,1.,2.22044604925031E-16));
#195=DIRECTION('',(0.,-2.22044604925031E-16,1.));
#196=DIRECTION('center_axis',(2.368475785867E-16,-1.,-2.22044604925031E-16));
#197=DIRECTION('ref_axis',(1.,2.368475785867E-16,5.25907270147341E-32));
#198=DIRECTION('',(0.,-2.22044604925031E-16,1.));
#199=DIRECTION('',(1.,2.368475785867E-16,5.25907270147341E-32));
#200=DIRECTION('center_axis',(-1.,0.,0.));
#201=DIRECTION('ref_axis',(0.,-1.,-2.22044604925031E-16));
#202=DIRECTION('',(0.,-2.22044604925031E-16,1.));
#203=DIRECTION('',(0.,-1.,-2.22044604925031E-16));
#204=DIRECTION('center_axis',(-2.368475785867E-16,1.,2.22044604925031E-16));
#205=DIRECTION('ref_axis',(-1.,-2.368475785867E-16,-5.25907270147341E-32));
#206=DIRECTION('',(-1.,-2.368475785867E-16,-5.25907270147341E-32));
#207=DIRECTION('center_axis',(0.,-2.22044604925031E-16,1.));
#208=DIRECTION('ref_axis',(0.,-1.,-2.22044604925031E-16));
#209=CARTESIAN_POINT('',(0.,0.,0.));
#210=CARTESIAN_POINT('Origin',(87.6661728291922,-97.010165230141,22.1422592851043));
#211=CARTESIAN_POINT('',(-62.3338271708078,-69.0992299565048,22.0014771048744));
#212=CARTESIAN_POINT('',(87.6661728291922,-69.0992299565048,22.0014771048744));
#213=CARTESIAN_POINT('',(87.6661728291922,-69.0992299565048,22.0014771048744));
#214=CARTESIAN_POINT('',(-62.3338271708079,-84.5988749075604,-2.85774071489573));
#215=CARTESIAN_POINT('Origin',(-62.3338271708078,-97.0101652301411,22.1422592851043));
#216=CARTESIAN_POINT('',(87.6661728291922,-84.5988749075604,-2.85774071489573));
#217=CARTESIAN_POINT('',(87.6661728291922,-84.5988749075604,-2.85774071489573));
#218=CARTESIAN_POINT('Origin',(87.6661728291922,-97.010165230141,22.1422592851043));
#219=CARTESIAN_POINT('Origin',(87.6661728291922,-84.5988749075604,-2.85774071489573));
#220=CARTESIAN_POINT('',(-62.3338271708079,-100.,-2.85774071489574));
#221=CARTESIAN_POINT('',(-62.3338271708079,7.7005625462198,-2.85774071489568));
#222=CARTESIAN_POINT('',(87.6661728291922,-100.,-2.85774071489574));
#223=CARTESIAN_POINT('',(12.6661728291922,-100.,-2.85774071489574));
#224=CARTESIAN_POINT('',(87.6661728291922,-92.2994374537802,-2.85774071489573));
#225=CARTESIAN_POINT('Origin',(12.6661728291922,-8.88178419700125E-15,22.0014771048744));
#226=CARTESIAN_POINT('',(87.6661728291922,100.,22.0014771048745));
#227=CARTESIAN_POINT('',(87.6661728291922,-100.,22.0014771048744));
#228=CARTESIAN_POINT('',(-62.3338271708079,100.,22.0014771048745));
#229=CARTESIAN_POINT('',(87.6661728291922,100.,22.0014771048745));
#230=CARTESIAN_POINT('',(-62.3338271708079,100.,22.0014771048745));
#231=CARTESIAN_POINT('Origin',(87.6661728291922,-100.,-12.9985228951256));
#232=CARTESIAN_POINT('',(87.6661728291922,-100.,-12.9985228951256));
#233=CARTESIAN_POINT('',(87.6661728291922,-100.,-12.9985228951256));
#234=CARTESIAN_POINT('',(87.6661728291922,100.,-12.9985228951256));
#235=CARTESIAN_POINT('',(87.6661728291922,-100.,-12.9985228951256));
#236=CARTESIAN_POINT('',(87.6661728291922,100.,-12.9985228951256));
#237=CARTESIAN_POINT('Origin',(-62.3338271708079,-100.,-12.9985228951256));
#238=CARTESIAN_POINT('',(-62.3338271708079,-100.,-12.9985228951256));
#239=CARTESIAN_POINT('',(-62.3338271708079,-100.,-12.9985228951256));
#240=CARTESIAN_POINT('',(-62.3338271708079,-100.,-12.9985228951256));
#241=CARTESIAN_POINT('Origin',(-62.3338271708079,100.,-12.9985228951256));
#242=CARTESIAN_POINT('',(-62.3338271708079,100.,-12.9985228951256));
#243=CARTESIAN_POINT('',(-62.3338271708079,100.,-12.9985228951256));
#244=CARTESIAN_POINT('',(-62.3338271708079,100.,-12.9985228951256));
#245=CARTESIAN_POINT('Origin',(87.6661728291922,100.,-12.9985228951256));
#246=CARTESIAN_POINT('',(87.6661728291922,100.,-12.9985228951256));
#247=CARTESIAN_POINT('Origin',(12.6661728291922,-2.22044604925031E-15,-12.9985228951256));
#248=UNCERTAINTY_MEASURE_WITH_UNIT(LENGTH_MEASURE(0.01),#252,
'DISTANCE_ACCURACY_VALUE',
'Maximum model space distance between geometric entities at asserted c
onnectivities');
#249=UNCERTAINTY_MEASURE_WITH_UNIT(LENGTH_MEASURE(0.01),#252,
'DISTANCE_ACCURACY_VALUE',
'Maximum model space distance between geometric entities at asserted c
onnectivities');
#250=(
GEOMETRIC_REPRESENTATION_CONTEXT(3)
GLOBAL_UNCERTAINTY_ASSIGNED_CONTEXT((#248))
GLOBAL_UNIT_ASSIGNED_CONTEXT((#252,#254,#255))
REPRESENTATION_CONTEXT('','3D')
);
#251=(
GEOMETRIC_REPRESENTATION_CONTEXT(3)
GLOBAL_UNCERTAINTY_ASSIGNED_CONTEXT((#249))
GLOBAL_UNIT_ASSIGNED_CONTEXT((#252,#254,#255))
REPRESENTATION_CONTEXT('','3D')
);
#252=(
LENGTH_UNIT()
NAMED_UNIT(*)
SI_UNIT(.MILLI.,.METRE.)
);
#253=(
LENGTH_UNIT()
NAMED_UNIT(*)
SI_UNIT(.CENTI.,.METRE.)
);
#254=(
NAMED_UNIT(*)
PLANE_ANGLE_UNIT()
SI_UNIT($,.RADIAN.)
);
#255=(
NAMED_UNIT(*)
SI_UNIT($,.STERADIAN.)
SOLID_ANGLE_UNIT()
);
#256=SHAPE_DEFINITION_REPRESENTATION(#257,#258);
#257=PRODUCT_DEFINITION_SHAPE('',$,#260);
#258=SHAPE_REPRESENTATION('',(#160),#250);
#259=PRODUCT_DEFINITION_CONTEXT('part definition',#264,'design');
#260=PRODUCT_DEFINITION('NON-PLANAR WALLS Pocket_04_v01',
'3.4_NON-PLANAR WALLS Pocket_v01',#261,#259);
#261=PRODUCT_DEFINITION_FORMATION('',$,#266);
#262=PRODUCT_RELATED_PRODUCT_CATEGORY('3.4_NON-PLANAR WALLS Pocket_v01',
'3.4_NON-PLANAR WALLS Pocket_v01',(#266));
#263=APPLICATION_PROTOCOL_DEFINITION('international standard',
'automotive_design',2009,#264);
#264=APPLICATION_CONTEXT(
'Core Data for Automotive Mechanical Design Process');
#265=PRODUCT_CONTEXT('part definition',#264,'mechanical');
#266=PRODUCT('NON-PLANAR WALLS Pocket_04_v01',
'3.4_NON-PLANAR WALLS Pocket_v01',$,(#265));
#267=PRESENTATION_STYLE_ASSIGNMENT((#268));
#268=SURFACE_STYLE_USAGE(.BOTH.,#271);
#269=SURFACE_STYLE_RENDERING_WITH_PROPERTIES($,#275,(#270));
#270=SURFACE_STYLE_TRANSPARENT(0.);
#271=SURFACE_SIDE_STYLE('',(#272,#269));
#272=SURFACE_STYLE_FILL_AREA(#273);
#273=FILL_AREA_STYLE('',(#274));
#274=FILL_AREA_STYLE_COLOUR('',#275);
#275=COLOUR_RGB('',0.749019607843137,0.749019607843137,0.749019607843137);
ENDSEC;
END-ISO-10303-21;
