ISO-10303-21;
HEADER;
/* Generated by software containing ST-Developer
 * from STEP Tools, Inc. (www.steptools.com) 
 */

FILE_DESCRIPTION(
/* description */ (''),
/* implementation_level */ '2;1');

FILE_NAME(
/* name */ 'obstructed-hole.step',
/* time_stamp */ '2023-03-06T16:56:03+03:00',
/* author */ (''),
/* organization */ (''),
/* preprocessor_version */ 'ST-DEVELOPER v19.2',
/* originating_system */ 'Autodesk Translation Framework v11.17.0.187',

/* authorisation */ '');

FILE_SCHEMA (('AUTOMOTIVE_DESIGN { 1 0 10303 214 3 1 1 }'));
ENDSEC;

DATA;
#10=MECHANICAL_DESIGN_GEOMETRIC_PRESENTATION_REPRESENTATION('',(#13),#401);
#11=SHAPE_REPRESENTATION_RELATIONSHIP('SRR','None',#408,#12);
#12=ADVANCED_BREP_SHAPE_REPRESENTATION('',(#14),#400);
#13=STYLED_ITEM('',(#417),#14);
#14=MANIFOLD_SOLID_BREP('Body1',#237);
#15=FACE_BOUND('',#45,.T.);
#16=FACE_BOUND('',#52,.T.);
#17=FACE_BOUND('',#54,.T.);
#18=CYLINDRICAL_SURFACE('',#256,30.);
#19=CYLINDRICAL_SURFACE('',#262,20.);
#20=CIRCLE('',#255,30.);
#21=CIRCLE('',#257,30.);
#22=CIRCLE('',#258,30.);
#23=CIRCLE('',#259,30.);
#24=CIRCLE('',#261,20.);
#25=CIRCLE('',#263,20.);
#26=FACE_OUTER_BOUND('',#39,.T.);
#27=FACE_OUTER_BOUND('',#40,.T.);
#28=FACE_OUTER_BOUND('',#41,.T.);
#29=FACE_OUTER_BOUND('',#42,.T.);
#30=FACE_OUTER_BOUND('',#43,.T.);
#31=FACE_OUTER_BOUND('',#44,.T.);
#32=FACE_OUTER_BOUND('',#46,.T.);
#33=FACE_OUTER_BOUND('',#47,.T.);
#34=FACE_OUTER_BOUND('',#48,.T.);
#35=FACE_OUTER_BOUND('',#49,.T.);
#36=FACE_OUTER_BOUND('',#50,.T.);
#37=FACE_OUTER_BOUND('',#51,.T.);
#38=FACE_OUTER_BOUND('',#53,.T.);
#39=EDGE_LOOP('',(#153,#154,#155,#156));
#40=EDGE_LOOP('',(#157,#158,#159,#160));
#41=EDGE_LOOP('',(#161,#162,#163,#164));
#42=EDGE_LOOP('',(#165,#166,#167,#168));
#43=EDGE_LOOP('',(#169,#170,#171,#172,#173,#174,#175,#176));
#44=EDGE_LOOP('',(#177,#178,#179,#180,#181));
#45=EDGE_LOOP('',(#182));
#46=EDGE_LOOP('',(#183,#184,#185,#186));
#47=EDGE_LOOP('',(#187,#188,#189,#190));
#48=EDGE_LOOP('',(#191,#192,#193,#194));
#49=EDGE_LOOP('',(#195,#196,#197,#198));
#50=EDGE_LOOP('',(#199,#200,#201,#202));
#51=EDGE_LOOP('',(#203,#204,#205,#206));
#52=EDGE_LOOP('',(#207));
#53=EDGE_LOOP('',(#208,#209,#210,#211));
#54=EDGE_LOOP('',(#212));
#55=LINE('',#338,#79);
#56=LINE('',#340,#80);
#57=LINE('',#342,#81);
#58=LINE('',#343,#82);
#59=LINE('',#346,#83);
#60=LINE('',#348,#84);
#61=LINE('',#349,#85);
#62=LINE('',#352,#86);
#63=LINE('',#354,#87);
#64=LINE('',#355,#88);
#65=LINE('',#362,#89);
#66=LINE('',#370,#90);
#67=LINE('',#375,#91);
#68=LINE('',#377,#92);
#69=LINE('',#379,#93);
#70=LINE('',#380,#94);
#71=LINE('',#383,#95);
#72=LINE('',#385,#96);
#73=LINE('',#386,#97);
#74=LINE('',#389,#98);
#75=LINE('',#391,#99);
#76=LINE('',#392,#100);
#77=LINE('',#394,#101);
#78=LINE('',#395,#102);
#79=VECTOR('',#274,10.);
#80=VECTOR('',#275,10.);
#81=VECTOR('',#276,10.);
#82=VECTOR('',#277,10.);
#83=VECTOR('',#280,10.);
#84=VECTOR('',#281,10.);
#85=VECTOR('',#282,10.);
#86=VECTOR('',#285,10.);
#87=VECTOR('',#286,10.);
#88=VECTOR('',#287,10.);
#89=VECTOR('',#296,30.);
#90=VECTOR('',#307,20.);
#91=VECTOR('',#312,10.);
#92=VECTOR('',#313,10.);
#93=VECTOR('',#314,10.);
#94=VECTOR('',#315,10.);
#95=VECTOR('',#318,10.);
#96=VECTOR('',#319,10.);
#97=VECTOR('',#320,10.);
#98=VECTOR('',#323,10.);
#99=VECTOR('',#324,10.);
#100=VECTOR('',#325,10.);
#101=VECTOR('',#328,10.);
#102=VECTOR('',#329,10.);
#103=VERTEX_POINT('',#336);
#104=VERTEX_POINT('',#337);
#105=VERTEX_POINT('',#339);
#106=VERTEX_POINT('',#341);
#107=VERTEX_POINT('',#345);
#108=VERTEX_POINT('',#347);
#109=VERTEX_POINT('',#351);
#110=VERTEX_POINT('',#353);
#111=VERTEX_POINT('',#359);
#112=VERTEX_POINT('',#361);
#113=VERTEX_POINT('',#366);
#114=VERTEX_POINT('',#369);
#115=VERTEX_POINT('',#373);
#116=VERTEX_POINT('',#374);
#117=VERTEX_POINT('',#376);
#118=VERTEX_POINT('',#378);
#119=VERTEX_POINT('',#382);
#120=VERTEX_POINT('',#384);
#121=VERTEX_POINT('',#388);
#122=VERTEX_POINT('',#390);
#123=EDGE_CURVE('',#103,#104,#55,.T.);
#124=EDGE_CURVE('',#105,#103,#56,.T.);
#125=EDGE_CURVE('',#106,#105,#57,.T.);
#126=EDGE_CURVE('',#104,#106,#58,.T.);
#127=EDGE_CURVE('',#104,#107,#59,.T.);
#128=EDGE_CURVE('',#108,#106,#60,.T.);
#129=EDGE_CURVE('',#107,#108,#61,.T.);
#130=EDGE_CURVE('',#107,#109,#62,.T.);
#131=EDGE_CURVE('',#110,#108,#63,.T.);
#132=EDGE_CURVE('',#109,#110,#64,.T.);
#133=EDGE_CURVE('',#110,#105,#20,.T.);
#134=EDGE_CURVE('',#111,#111,#21,.T.);
#135=EDGE_CURVE('',#111,#112,#65,.T.);
#136=EDGE_CURVE('',#112,#109,#22,.T.);
#137=EDGE_CURVE('',#103,#112,#23,.T.);
#138=EDGE_CURVE('',#113,#113,#24,.T.);
#139=EDGE_CURVE('',#113,#114,#66,.T.);
#140=EDGE_CURVE('',#114,#114,#25,.T.);
#141=EDGE_CURVE('',#115,#116,#67,.T.);
#142=EDGE_CURVE('',#115,#117,#68,.T.);
#143=EDGE_CURVE('',#118,#117,#69,.T.);
#144=EDGE_CURVE('',#116,#118,#70,.T.);
#145=EDGE_CURVE('',#116,#119,#71,.T.);
#146=EDGE_CURVE('',#120,#118,#72,.T.);
#147=EDGE_CURVE('',#119,#120,#73,.T.);
#148=EDGE_CURVE('',#119,#121,#74,.T.);
#149=EDGE_CURVE('',#122,#120,#75,.T.);
#150=EDGE_CURVE('',#121,#122,#76,.T.);
#151=EDGE_CURVE('',#121,#115,#77,.T.);
#152=EDGE_CURVE('',#117,#122,#78,.T.);
#153=ORIENTED_EDGE('',*,*,#123,.F.);
#154=ORIENTED_EDGE('',*,*,#124,.F.);
#155=ORIENTED_EDGE('',*,*,#125,.F.);
#156=ORIENTED_EDGE('',*,*,#126,.F.);
#157=ORIENTED_EDGE('',*,*,#127,.F.);
#158=ORIENTED_EDGE('',*,*,#126,.T.);
#159=ORIENTED_EDGE('',*,*,#128,.F.);
#160=ORIENTED_EDGE('',*,*,#129,.F.);
#161=ORIENTED_EDGE('',*,*,#130,.F.);
#162=ORIENTED_EDGE('',*,*,#129,.T.);
#163=ORIENTED_EDGE('',*,*,#131,.F.);
#164=ORIENTED_EDGE('',*,*,#132,.F.);
#165=ORIENTED_EDGE('',*,*,#133,.F.);
#166=ORIENTED_EDGE('',*,*,#131,.T.);
#167=ORIENTED_EDGE('',*,*,#128,.T.);
#168=ORIENTED_EDGE('',*,*,#125,.T.);
#169=ORIENTED_EDGE('',*,*,#134,.F.);
#170=ORIENTED_EDGE('',*,*,#135,.T.);
#171=ORIENTED_EDGE('',*,*,#136,.T.);
#172=ORIENTED_EDGE('',*,*,#132,.T.);
#173=ORIENTED_EDGE('',*,*,#133,.T.);
#174=ORIENTED_EDGE('',*,*,#124,.T.);
#175=ORIENTED_EDGE('',*,*,#137,.T.);
#176=ORIENTED_EDGE('',*,*,#135,.F.);
#177=ORIENTED_EDGE('',*,*,#130,.T.);
#178=ORIENTED_EDGE('',*,*,#136,.F.);
#179=ORIENTED_EDGE('',*,*,#137,.F.);
#180=ORIENTED_EDGE('',*,*,#123,.T.);
#181=ORIENTED_EDGE('',*,*,#127,.T.);
#182=ORIENTED_EDGE('',*,*,#138,.T.);
#183=ORIENTED_EDGE('',*,*,#138,.F.);
#184=ORIENTED_EDGE('',*,*,#139,.T.);
#185=ORIENTED_EDGE('',*,*,#140,.F.);
#186=ORIENTED_EDGE('',*,*,#139,.F.);
#187=ORIENTED_EDGE('',*,*,#141,.F.);
#188=ORIENTED_EDGE('',*,*,#142,.T.);
#189=ORIENTED_EDGE('',*,*,#143,.F.);
#190=ORIENTED_EDGE('',*,*,#144,.F.);
#191=ORIENTED_EDGE('',*,*,#145,.F.);
#192=ORIENTED_EDGE('',*,*,#144,.T.);
#193=ORIENTED_EDGE('',*,*,#146,.F.);
#194=ORIENTED_EDGE('',*,*,#147,.F.);
#195=ORIENTED_EDGE('',*,*,#148,.F.);
#196=ORIENTED_EDGE('',*,*,#147,.T.);
#197=ORIENTED_EDGE('',*,*,#149,.F.);
#198=ORIENTED_EDGE('',*,*,#150,.F.);
#199=ORIENTED_EDGE('',*,*,#151,.F.);
#200=ORIENTED_EDGE('',*,*,#150,.T.);
#201=ORIENTED_EDGE('',*,*,#152,.F.);
#202=ORIENTED_EDGE('',*,*,#142,.F.);
#203=ORIENTED_EDGE('',*,*,#152,.T.);
#204=ORIENTED_EDGE('',*,*,#149,.T.);
#205=ORIENTED_EDGE('',*,*,#146,.T.);
#206=ORIENTED_EDGE('',*,*,#143,.T.);
#207=ORIENTED_EDGE('',*,*,#134,.T.);
#208=ORIENTED_EDGE('',*,*,#151,.T.);
#209=ORIENTED_EDGE('',*,*,#141,.T.);
#210=ORIENTED_EDGE('',*,*,#145,.T.);
#211=ORIENTED_EDGE('',*,*,#148,.T.);
#212=ORIENTED_EDGE('',*,*,#140,.T.);
#213=PLANE('',#251);
#214=PLANE('',#252);
#215=PLANE('',#253);
#216=PLANE('',#254);
#217=PLANE('',#260);
#218=PLANE('',#264);
#219=PLANE('',#265);
#220=PLANE('',#266);
#221=PLANE('',#267);
#222=PLANE('',#268);
#223=PLANE('',#269);
#224=ADVANCED_FACE('',(#26),#213,.T.);
#225=ADVANCED_FACE('',(#27),#214,.T.);
#226=ADVANCED_FACE('',(#28),#215,.T.);
#227=ADVANCED_FACE('',(#29),#216,.T.);
#228=ADVANCED_FACE('',(#30),#18,.F.);
#229=ADVANCED_FACE('',(#31,#15),#217,.F.);
#230=ADVANCED_FACE('',(#32),#19,.F.);
#231=ADVANCED_FACE('',(#33),#218,.T.);
#232=ADVANCED_FACE('',(#34),#219,.T.);
#233=ADVANCED_FACE('',(#35),#220,.T.);
#234=ADVANCED_FACE('',(#36),#221,.T.);
#235=ADVANCED_FACE('',(#37,#16),#222,.T.);
#236=ADVANCED_FACE('',(#38,#17),#223,.F.);
#237=CLOSED_SHELL('',(#224,#225,#226,#227,#228,#229,#230,#231,#232,#233,
#234,#235,#236));
#238=DERIVED_UNIT_ELEMENT(#240,1.);
#239=DERIVED_UNIT_ELEMENT(#403,-3.);
#240=(
MASS_UNIT()
NAMED_UNIT(*)
SI_UNIT(.KILO.,.GRAM.)
);
#241=DERIVED_UNIT((#238,#239));
#242=MEASURE_REPRESENTATION_ITEM('density measure',
POSITIVE_RATIO_MEASURE(7850.),#241);
#243=PROPERTY_DEFINITION_REPRESENTATION(#248,#245);
#244=PROPERTY_DEFINITION_REPRESENTATION(#249,#246);
#245=REPRESENTATION('material name',(#247),#400);
#246=REPRESENTATION('density',(#242),#400);
#247=DESCRIPTIVE_REPRESENTATION_ITEM('Steel','Steel');
#248=PROPERTY_DEFINITION('material property','material name',#410);
#249=PROPERTY_DEFINITION('material property','density of part',#410);
#250=AXIS2_PLACEMENT_3D('placement',#334,#270,#271);
#251=AXIS2_PLACEMENT_3D('',#335,#272,#273);
#252=AXIS2_PLACEMENT_3D('',#344,#278,#279);
#253=AXIS2_PLACEMENT_3D('',#350,#283,#284);
#254=AXIS2_PLACEMENT_3D('',#356,#288,#289);
#255=AXIS2_PLACEMENT_3D('',#357,#290,#291);
#256=AXIS2_PLACEMENT_3D('',#358,#292,#293);
#257=AXIS2_PLACEMENT_3D('',#360,#294,#295);
#258=AXIS2_PLACEMENT_3D('',#363,#297,#298);
#259=AXIS2_PLACEMENT_3D('',#364,#299,#300);
#260=AXIS2_PLACEMENT_3D('',#365,#301,#302);
#261=AXIS2_PLACEMENT_3D('',#367,#303,#304);
#262=AXIS2_PLACEMENT_3D('',#368,#305,#306);
#263=AXIS2_PLACEMENT_3D('',#371,#308,#309);
#264=AXIS2_PLACEMENT_3D('',#372,#310,#311);
#265=AXIS2_PLACEMENT_3D('',#381,#316,#317);
#266=AXIS2_PLACEMENT_3D('',#387,#321,#322);
#267=AXIS2_PLACEMENT_3D('',#393,#326,#327);
#268=AXIS2_PLACEMENT_3D('',#396,#330,#331);
#269=AXIS2_PLACEMENT_3D('',#397,#332,#333);
#270=DIRECTION('axis',(0.,0.,1.));
#271=DIRECTION('refdir',(1.,0.,0.));
#272=DIRECTION('center_axis',(0.,0.,1.));
#273=DIRECTION('ref_axis',(1.,0.,0.));
#274=DIRECTION('',(-1.,0.,0.));
#275=DIRECTION('',(0.,-1.,0.));
#276=DIRECTION('',(1.,0.,0.));
#277=DIRECTION('',(0.,1.,0.));
#278=DIRECTION('center_axis',(-1.,0.,0.));
#279=DIRECTION('ref_axis',(0.,0.,1.));
#280=DIRECTION('',(0.,0.,-1.));
#281=DIRECTION('',(0.,0.,1.));
#282=DIRECTION('',(0.,1.,0.));
#283=DIRECTION('center_axis',(0.,0.,-1.));
#284=DIRECTION('ref_axis',(-1.,0.,0.));
#285=DIRECTION('',(1.,0.,0.));
#286=DIRECTION('',(-1.,0.,0.));
#287=DIRECTION('',(0.,1.,0.));
#288=DIRECTION('center_axis',(0.,1.,0.));
#289=DIRECTION('ref_axis',(-1.,0.,0.));
#290=DIRECTION('center_axis',(0.,-1.,0.));
#291=DIRECTION('ref_axis',(0.,0.,1.));
#292=DIRECTION('center_axis',(0.,-1.,0.));
#293=DIRECTION('ref_axis',(0.,0.,1.));
#294=DIRECTION('center_axis',(0.,-1.,0.));
#295=DIRECTION('ref_axis',(0.,0.,1.));
#296=DIRECTION('',(0.,-1.,0.));
#297=DIRECTION('center_axis',(0.,-1.,0.));
#298=DIRECTION('ref_axis',(0.,0.,1.));
#299=DIRECTION('center_axis',(0.,-1.,0.));
#300=DIRECTION('ref_axis',(0.,0.,1.));
#301=DIRECTION('center_axis',(0.,-1.,0.));
#302=DIRECTION('ref_axis',(0.,0.,1.));
#303=DIRECTION('center_axis',(0.,-1.,0.));
#304=DIRECTION('ref_axis',(0.,0.,1.));
#305=DIRECTION('center_axis',(0.,-1.,0.));
#306=DIRECTION('ref_axis',(0.,0.,1.));
#307=DIRECTION('',(0.,-1.,0.));
#308=DIRECTION('center_axis',(0.,1.,0.));
#309=DIRECTION('ref_axis',(0.,0.,1.));
#310=DIRECTION('center_axis',(-1.,0.,0.));
#311=DIRECTION('ref_axis',(0.,0.,1.));
#312=DIRECTION('',(0.,0.,-1.));
#313=DIRECTION('',(0.,1.,0.));
#314=DIRECTION('',(0.,0.,1.));
#315=DIRECTION('',(0.,1.,0.));
#316=DIRECTION('center_axis',(0.,0.,-1.));
#317=DIRECTION('ref_axis',(-1.,0.,0.));
#318=DIRECTION('',(1.,0.,0.));
#319=DIRECTION('',(-1.,0.,0.));
#320=DIRECTION('',(0.,1.,0.));
#321=DIRECTION('center_axis',(1.,0.,0.));
#322=DIRECTION('ref_axis',(0.,0.,-1.));
#323=DIRECTION('',(0.,0.,1.));
#324=DIRECTION('',(0.,0.,-1.));
#325=DIRECTION('',(0.,1.,0.));
#326=DIRECTION('center_axis',(0.,0.,1.));
#327=DIRECTION('ref_axis',(1.,0.,0.));
#328=DIRECTION('',(-1.,0.,0.));
#329=DIRECTION('',(1.,0.,0.));
#330=DIRECTION('center_axis',(0.,1.,0.));
#331=DIRECTION('ref_axis',(0.,0.,1.));
#332=DIRECTION('center_axis',(0.,1.,0.));
#333=DIRECTION('ref_axis',(1.,0.,0.));
#334=CARTESIAN_POINT('',(0.,0.,0.));
#335=CARTESIAN_POINT('Origin',(24.0000003576279,35.,3.00000004470348));
#336=CARTESIAN_POINT('',(29.8496231087057,35.,3.00000004470348));
#337=CARTESIAN_POINT('',(24.0000003576279,35.,3.00000004470348));
#338=CARTESIAN_POINT('',(12.0000001788139,35.,3.00000004470348));
#339=CARTESIAN_POINT('',(29.8496231087057,39.,3.00000004470348));
#340=CARTESIAN_POINT('',(29.8496231087057,40.,3.00000004470348));
#341=CARTESIAN_POINT('',(24.0000003576279,39.,3.00000004470348));
#342=CARTESIAN_POINT('',(33.0000004917383,39.,3.00000004470348));
#343=CARTESIAN_POINT('',(24.0000003576279,35.,3.00000004470348));
#344=CARTESIAN_POINT('Origin',(24.0000003576279,35.,-3.00000004470348));
#345=CARTESIAN_POINT('',(24.0000003576279,35.,-3.00000004470348));
#346=CARTESIAN_POINT('',(24.0000003576279,35.,-1.50000002235174));
#347=CARTESIAN_POINT('',(24.0000003576279,39.,-3.00000004470348));
#348=CARTESIAN_POINT('',(24.0000003576279,39.,3.00000004470348));
#349=CARTESIAN_POINT('',(24.0000003576279,35.,-3.00000004470348));
#350=CARTESIAN_POINT('Origin',(29.8496231087057,35.,-3.00000004470348));
#351=CARTESIAN_POINT('',(29.8496231087057,35.,-3.00000004470348));
#352=CARTESIAN_POINT('',(14.9248115543529,35.,-3.00000004470348));
#353=CARTESIAN_POINT('',(29.8496231087057,39.,-3.00000004470348));
#354=CARTESIAN_POINT('',(24.0000003576279,39.,-3.00000004470348));
#355=CARTESIAN_POINT('',(29.8496231087057,40.,-3.00000004470348));
#356=CARTESIAN_POINT('Origin',(27.0000001788139,39.,0.));
#357=CARTESIAN_POINT('Origin',(0.,39.,0.));
#358=CARTESIAN_POINT('Origin',(0.,40.,0.));
#359=CARTESIAN_POINT('',(3.67394039744206E-15,45.,-30.));
#360=CARTESIAN_POINT('Origin',(0.,45.,0.));
#361=CARTESIAN_POINT('',(3.67394039744206E-15,35.,-30.));
#362=CARTESIAN_POINT('',(3.67394039744206E-15,40.,-30.));
#363=CARTESIAN_POINT('Origin',(0.,35.,0.));
#364=CARTESIAN_POINT('Origin',(0.,35.,0.));
#365=CARTESIAN_POINT('Origin',(0.,35.,0.));
#366=CARTESIAN_POINT('',(2.44929359829471E-15,35.,-20.));
#367=CARTESIAN_POINT('Origin',(0.,35.,0.));
#368=CARTESIAN_POINT('Origin',(0.,20.,0.));
#369=CARTESIAN_POINT('',(-2.44929359829471E-15,0.,-20.));
#370=CARTESIAN_POINT('',(2.44929359829471E-15,20.,-20.));
#371=CARTESIAN_POINT('Origin',(0.,0.,0.));
#372=CARTESIAN_POINT('Origin',(-50.,0.,-50.));
#373=CARTESIAN_POINT('',(-50.,0.,50.));
#374=CARTESIAN_POINT('',(-50.,0.,-50.));
#375=CARTESIAN_POINT('',(-50.,0.,50.));
#376=CARTESIAN_POINT('',(-50.,45.,50.));
#377=CARTESIAN_POINT('',(-50.,0.,50.));
#378=CARTESIAN_POINT('',(-50.,45.,-50.));
#379=CARTESIAN_POINT('',(-50.,45.,50.));
#380=CARTESIAN_POINT('',(-50.,0.,-50.));
#381=CARTESIAN_POINT('Origin',(50.,0.,-50.));
#382=CARTESIAN_POINT('',(50.,0.,-50.));
#383=CARTESIAN_POINT('',(-50.,0.,-50.));
#384=CARTESIAN_POINT('',(50.,45.,-50.));
#385=CARTESIAN_POINT('',(-50.,45.,-50.));
#386=CARTESIAN_POINT('',(50.,0.,-50.));
#387=CARTESIAN_POINT('Origin',(50.,0.,50.));
#388=CARTESIAN_POINT('',(50.,0.,50.));
#389=CARTESIAN_POINT('',(50.,0.,-50.));
#390=CARTESIAN_POINT('',(50.,45.,50.));
#391=CARTESIAN_POINT('',(50.,45.,-50.));
#392=CARTESIAN_POINT('',(50.,0.,50.));
#393=CARTESIAN_POINT('Origin',(-50.,0.,50.));
#394=CARTESIAN_POINT('',(50.,0.,50.));
#395=CARTESIAN_POINT('',(50.,45.,50.));
#396=CARTESIAN_POINT('Origin',(0.,45.,0.));
#397=CARTESIAN_POINT('Origin',(0.,0.,0.));
#398=UNCERTAINTY_MEASURE_WITH_UNIT(LENGTH_MEASURE(0.01),#402,
'DISTANCE_ACCURACY_VALUE',
'Maximum model space distance between geometric entities at asserted c
onnectivities');
#399=UNCERTAINTY_MEASURE_WITH_UNIT(LENGTH_MEASURE(0.01),#402,
'DISTANCE_ACCURACY_VALUE',
'Maximum model space distance between geometric entities at asserted c
onnectivities');
#400=(
GEOMETRIC_REPRESENTATION_CONTEXT(3)
GLOBAL_UNCERTAINTY_ASSIGNED_CONTEXT((#398))
GLOBAL_UNIT_ASSIGNED_CONTEXT((#402,#404,#405))
REPRESENTATION_CONTEXT('','3D')
);
#401=(
GEOMETRIC_REPRESENTATION_CONTEXT(3)
GLOBAL_UNCERTAINTY_ASSIGNED_CONTEXT((#399))
GLOBAL_UNIT_ASSIGNED_CONTEXT((#402,#404,#405))
REPRESENTATION_CONTEXT('','3D')
);
#402=(
LENGTH_UNIT()
NAMED_UNIT(*)
SI_UNIT(.MILLI.,.METRE.)
);
#403=(
LENGTH_UNIT()
NAMED_UNIT(*)
SI_UNIT($,.METRE.)
);
#404=(
NAMED_UNIT(*)
PLANE_ANGLE_UNIT()
SI_UNIT($,.RADIAN.)
);
#405=(
NAMED_UNIT(*)
SI_UNIT($,.STERADIAN.)
SOLID_ANGLE_UNIT()
);
#406=SHAPE_DEFINITION_REPRESENTATION(#407,#408);
#407=PRODUCT_DEFINITION_SHAPE('',$,#410);
#408=SHAPE_REPRESENTATION('',(#250),#400);
#409=PRODUCT_DEFINITION_CONTEXT('part definition',#414,'design');
#410=PRODUCT_DEFINITION('(Unsaved)','(Unsaved)',#411,#409);
#411=PRODUCT_DEFINITION_FORMATION('',$,#416);
#412=PRODUCT_RELATED_PRODUCT_CATEGORY('(Unsaved)','(Unsaved)',(#416));
#413=APPLICATION_PROTOCOL_DEFINITION('international standard',
'automotive_design',2009,#414);
#414=APPLICATION_CONTEXT(
'Core Data for Automotive Mechanical Design Process');
#415=PRODUCT_CONTEXT('part definition',#414,'mechanical');
#416=PRODUCT('(Unsaved)','(Unsaved)',$,(#415));
#417=PRESENTATION_STYLE_ASSIGNMENT((#418));
#418=SURFACE_STYLE_USAGE(.BOTH.,#419);
#419=SURFACE_SIDE_STYLE('',(#420));
#420=SURFACE_STYLE_FILL_AREA(#421);
#421=FILL_AREA_STYLE('Steel - Satin',(#422));
#422=FILL_AREA_STYLE_COLOUR('Steel - Satin',#423);
#423=COLOUR_RGB('Steel - Satin',0.627450980392157,0.627450980392157,0.627450980392157);
ENDSEC;
END-ISO-10303-21;
